sc-code/sm/BASE_wave_warp0.vcd
$date
     Jun 11, 2023       09:01:09
$end

$version
 SystemC 2.3.4-Accellera --- May 20 2023 00:37:43
$end

$timescale
     1 ns
$end

$scope module SystemC $end
$var wire    1  aaabg  Clk       $end
$var wire    1  aaabh  Rst_n       $end
$var wire    1  aaabi  jump       $end
$var wire   32  aaabj  jump_addr [31:0]  $end
$var wire    1  aaabk  bramch_sig       $end
$var wire    1  aaabl  fetch_valid       $end
$var wire    1  aaabm  fetch_valid2       $end
$var wire   32  aaabn  pc [31:0]  $end
$var wire    1  aaacg  dispatch_warp_valid       $end
$var wire    1  aaach  ibuf_empty       $end
$var wire    1  aaaci  ibuf_swallow       $end
$var wire   32  aaacs  ififo_elem_num [31:0]  $end
$var wire    1  aaact  wait_bran       $end
$var wire    1  aaacu  can_dispatch       $end
$var wire    1  aaacv  opc_full       $end
$var wire   32  aaacw  last_dispatch_warpid [31:0]  $end
$var wire   32  aaadg  issueins_warpid [31:0]  $end
$var wire    1  aaadh  dispatch_valid       $end
$var wire    1  aaadi  dispatch_ready       $end
$var wire   32  aaadj  opcfifo_elem_num [31:0]  $end
$var wire   32  aaadt  emitins_warpid [31:0]  $end
$var wire    1  aaadu  doemit       $end
$var wire    1  aaadv  findemit       $end
$var wire   32  aaadw  emit_idx [31:0]  $end
$var wire    1  aaadx  emito_salu       $end
$var wire    1  aaady  emito_valu       $end
$var wire    1  aaadz  emito_vfpu       $end
$var wire    1  aaaea  emito_lsu       $end
$var wire    1  aaaee  salu_ready       $end
$var wire    1  aaaef  salufifo_empty       $end
$var wire   32  aaafc  salufifo_elem_num [31:0]  $end
$var wire    1  aaafd  valu_ready       $end
$var wire    1  aaafe  valuto_simtstk       $end
$var wire    8  aaaff  branch_elsemask [7:0]  $end
$var wire   32  aaafg  branch_elsepc [31:0]  $end
$var wire   32  aaafq  vbranchins_warpid [31:0]  $end
$var wire    1  aaafr  valufifo_empty       $end
$var wire   32  aaagk  valufifo_elem_num [31:0]  $end
$var wire    1  aaagl  emito_simtstk       $end
$var wire    1  aaagm  simtstk_jump       $end
$var wire   32  aaagn  simtstk_jumpaddr [31:0]  $end
$var wire    8  aaago  current_mask [7:0]  $end
$var wire    1  aaagp  vbran_sig       $end
$var wire    1  aaagq  vfpu_ready       $end
$var wire    1  aaagr  vfpufifo_empty       $end
$var wire   32  aaahk  vfpufifo_elem_num [31:0]  $end
$var wire    1  aaahl  lsu_ready       $end
$var wire    1  aaahm  lsufifo_empty       $end
$var wire   32  aaaio  lsufifo_elem_num [31:0]  $end
$var wire    1  aaaip  write_s       $end
$var wire    1  aaaiq  write_v       $end
$var wire    1  aaair  write_f       $end
$var wire    1  aaais  execpop_salu       $end
$var wire    1  aaait  execpop_valu       $end
$var wire    1  aaaiu  execpop_vfpu       $end
$var wire    1  aaaiv  execpop_lsu       $end
$var wire    1  aaaiw  wb_ena       $end
$var wire   32  aaajg  wb_warpid [31:0]  $end
$var wire   32  aaakn  v_regfile(0)(0) [31:0]  $end
$var wire   32  aaako  v_regfile(1)(0) [31:0]  $end
$var wire   32  aaakp  v_regfile(2)(0) [31:0]  $end
$var wire   32  aaakq  v_regfile(3)(0) [31:0]  $end
$var wire   32  aaakr  v_regfile(4)(0) [31:0]  $end
$var wire   32  aaaks  v_regfile(5)(0) [31:0]  $end
$var wire   32  aaakt  v_regfile(6)(0) [31:0]  $end
$var wire   32  aaaku  v_regfile(7)(0) [31:0]  $end
$scope module decode_ins $end
$var wire   32  aaabx  ins_bit [31:0]  $end
$var wire   32  aaaby  op [31:0]  $end
$var wire   32  aaabz  s1 [31:0]  $end
$var wire   32  aaaca  s2 [31:0]  $end
$var wire   32  aaacb  s3 [31:0]  $end
$var wire   32  aaacc  d [31:0]  $end
$var wire   32  aaacd  imm [31:0]  $end
$var wire    8  aaace  mask [7:0]  $end
$var wire   32  aaacf  currentpc [31:0]  $end
$upscope $end
$scope module emit_ins $end
$var wire   32  aaadk  ins_bit [31:0]  $end
$var wire   32  aaadl  op [31:0]  $end
$var wire   32  aaadm  s1 [31:0]  $end
$var wire   32  aaadn  s2 [31:0]  $end
$var wire   32  aaado  s3 [31:0]  $end
$var wire   32  aaadp  d [31:0]  $end
$var wire   32  aaadq  imm [31:0]  $end
$var wire    8  aaadr  mask [7:0]  $end
$var wire   32  aaads  currentpc [31:0]  $end
$upscope $end
$scope module external_mem $end
$var wire   32  aaakv  data(0) [31:0]  $end
$upscope $end
$scope module fetch_ins $end
$var wire   32  aaabo  ins_bit [31:0]  $end
$var wire   32  aaabp  op [31:0]  $end
$var wire   32  aaabq  s1 [31:0]  $end
$var wire   32  aaabr  s2 [31:0]  $end
$var wire   32  aaabs  s3 [31:0]  $end
$var wire   32  aaabt  d [31:0]  $end
$var wire   32  aaabu  imm [31:0]  $end
$var wire    8  aaabv  mask [7:0]  $end
$var wire   32  aaabw  currentpc [31:0]  $end
$upscope $end
$scope module ibuftop_ins $end
$var wire   32  aaacj  ins_bit [31:0]  $end
$var wire   32  aaack  op [31:0]  $end
$var wire   32  aaacl  s1 [31:0]  $end
$var wire   32  aaacm  s2 [31:0]  $end
$var wire   32  aaacn  s3 [31:0]  $end
$var wire   32  aaaco  d [31:0]  $end
$var wire   32  aaacp  imm [31:0]  $end
$var wire    8  aaacq  mask [7:0]  $end
$var wire   32  aaacr  currentpc [31:0]  $end
$upscope $end
$scope module issue_ins $end
$var wire   32  aaacx  ins_bit [31:0]  $end
$var wire   32  aaacy  op [31:0]  $end
$var wire   32  aaacz  s1 [31:0]  $end
$var wire   32  aaada  s2 [31:0]  $end
$var wire   32  aaadb  s3 [31:0]  $end
$var wire   32  aaadc  d [31:0]  $end
$var wire   32  aaadd  imm [31:0]  $end
$var wire    8  aaade  mask [7:0]  $end
$var wire   32  aaadf  currentpc [31:0]  $end
$upscope $end
$scope module lsutop_dat $end
$var wire   32  aaahw  rds1_data [31:0]  $end
$var wire   32  aaahx  rdv1_data(0) [31:0]  $end
$var wire   32  aaahy  rdv1_data(1) [31:0]  $end
$var wire   32  aaahz  rdv1_data(2) [31:0]  $end
$var wire   32  aaaia  rdv1_data(3) [31:0]  $end
$var wire   32  aaaib  rdv1_data(4) [31:0]  $end
$var wire   32  aaaic  rdv1_data(5) [31:0]  $end
$var wire   32  aaaid  rdv1_data(6) [31:0]  $end
$var wire   32  aaaie  rdv1_data(7) [31:0]  $end
$var real    1  aaaif  rdf1_data(0)       $end
$var real    1  aaaig  rdf1_data(1)       $end
$var real    1  aaaih  rdf1_data(2)       $end
$var real    1  aaaii  rdf1_data(3)       $end
$var real    1  aaaij  rdf1_data(4)       $end
$var real    1  aaaik  rdf1_data(5)       $end
$var real    1  aaail  rdf1_data(6)       $end
$var real    1  aaaim  rdf1_data(7)       $end
$var wire   32  aaain  warp_id [31:0]  $end
$scope module ins $end
$var wire   32  aaahn  ins_bit [31:0]  $end
$var wire   32  aaaho  op [31:0]  $end
$var wire   32  aaahp  s1 [31:0]  $end
$var wire   32  aaahq  s2 [31:0]  $end
$var wire   32  aaahr  s3 [31:0]  $end
$var wire   32  aaahs  d [31:0]  $end
$var wire   32  aaaht  imm [31:0]  $end
$var wire    8  aaahu  mask [7:0]  $end
$var wire   32  aaahv  currentpc [31:0]  $end
$upscope $end
$upscope $end
$scope module s_regfile $end
$var wire   32  aaajh  data(0) [31:0]  $end
$var wire   32  aaaji  data(1) [31:0]  $end
$var wire   32  aaajj  data(2) [31:0]  $end
$var wire   32  aaajk  data(3) [31:0]  $end
$var wire   32  aaajl  data(4) [31:0]  $end
$var wire   32  aaajm  data(5) [31:0]  $end
$var wire   32  aaajn  data(6) [31:0]  $end
$var wire   32  aaajo  data(7) [31:0]  $end
$var wire   32  aaajp  data(8) [31:0]  $end
$var wire   32  aaajq  data(9) [31:0]  $end
$var wire   32  aaajr  data(10) [31:0]  $end
$var wire   32  aaajs  data(11) [31:0]  $end
$var wire   32  aaajt  data(12) [31:0]  $end
$var wire   32  aaaju  data(13) [31:0]  $end
$var wire   32  aaajv  data(14) [31:0]  $end
$var wire   32  aaajw  data(15) [31:0]  $end
$var wire   32  aaajx  data(16) [31:0]  $end
$var wire   32  aaajy  data(17) [31:0]  $end
$var wire   32  aaajz  data(18) [31:0]  $end
$var wire   32  aaaka  data(19) [31:0]  $end
$var wire   32  aaakb  data(20) [31:0]  $end
$var wire   32  aaakc  data(21) [31:0]  $end
$var wire   32  aaakd  data(22) [31:0]  $end
$var wire   32  aaake  data(23) [31:0]  $end
$var wire   32  aaakf  data(24) [31:0]  $end
$var wire   32  aaakg  data(25) [31:0]  $end
$var wire   32  aaakh  data(26) [31:0]  $end
$var wire   32  aaaki  data(27) [31:0]  $end
$var wire   32  aaakj  data(28) [31:0]  $end
$var wire   32  aaakk  data(29) [31:0]  $end
$var wire   32  aaakl  data(30) [31:0]  $end
$var wire   32  aaakm  data(31) [31:0]  $end
$upscope $end
$scope module salutmp2 $end
$var wire   32  aaaep  warp_id [31:0]  $end
$var wire   32  aaaeq  data [31:0]  $end
$scope module ins $end
$var wire   32  aaaeg  ins_bit [31:0]  $end
$var wire   32  aaaeh  op [31:0]  $end
$var wire   32  aaaei  s1 [31:0]  $end
$var wire   32  aaaej  s2 [31:0]  $end
$var wire   32  aaaek  s3 [31:0]  $end
$var wire   32  aaael  d [31:0]  $end
$var wire   32  aaaem  imm [31:0]  $end
$var wire    8  aaaen  mask [7:0]  $end
$var wire   32  aaaeo  currentpc [31:0]  $end
$upscope $end
$upscope $end
$scope module salutop_dat $end
$var wire   32  aaafa  warp_id [31:0]  $end
$var wire   32  aaafb  data [31:0]  $end
$scope module ins $end
$var wire   32  aaaer  ins_bit [31:0]  $end
$var wire   32  aaaes  op [31:0]  $end
$var wire   32  aaaet  s1 [31:0]  $end
$var wire   32  aaaeu  s2 [31:0]  $end
$var wire   32  aaaev  s3 [31:0]  $end
$var wire   32  aaaew  d [31:0]  $end
$var wire   32  aaaex  imm [31:0]  $end
$var wire    8  aaaey  mask [7:0]  $end
$var wire   32  aaaez  currentpc [31:0]  $end
$upscope $end
$upscope $end
$scope module test_CSR $end
$var wire   32  aaaaa  data(0) [31:0]  $end
$var wire   32  aaaab  data(1) [31:0]  $end
$var wire   32  aaaac  data(2) [31:0]  $end
$var wire   32  aaaad  data(3) [31:0]  $end
$var wire   32  aaaae  data(4) [31:0]  $end
$var wire   32  aaaaf  data(5) [31:0]  $end
$var wire   32  aaaag  data(6) [31:0]  $end
$var wire   32  aaaah  data(7) [31:0]  $end
$var wire   32  aaaai  data(8) [31:0]  $end
$var wire   32  aaaaj  data(9) [31:0]  $end
$var wire   32  aaaak  data(10) [31:0]  $end
$var wire   32  aaaal  data(11) [31:0]  $end
$var wire   32  aaaam  data(12) [31:0]  $end
$var wire   32  aaaan  data(13) [31:0]  $end
$var wire   32  aaaao  data(14) [31:0]  $end
$var wire   32  aaaap  data(15) [31:0]  $end
$var wire   32  aaaaq  data(16) [31:0]  $end
$var wire   32  aaaar  data(17) [31:0]  $end
$var wire   32  aaaas  data(18) [31:0]  $end
$var wire   32  aaaat  data(19) [31:0]  $end
$var wire   32  aaaau  data(20) [31:0]  $end
$var wire   32  aaaav  data(21) [31:0]  $end
$var wire   32  aaaaw  data(22) [31:0]  $end
$var wire   32  aaaax  data(23) [31:0]  $end
$var wire   32  aaaay  data(24) [31:0]  $end
$var wire   32  aaaaz  data(25) [31:0]  $end
$var wire   32  aaaba  data(26) [31:0]  $end
$var wire   32  aaabb  data(27) [31:0]  $end
$var wire   32  aaabc  data(28) [31:0]  $end
$var wire   32  aaabd  data(29) [31:0]  $end
$var wire   32  aaabe  data(30) [31:0]  $end
$var wire   32  aaabf  data(31) [31:0]  $end
$upscope $end
$scope module tosalu_data $end
$var wire   32  aaaeb  data1 [31:0]  $end
$var wire   32  aaaec  data2 [31:0]  $end
$var wire   32  aaaed  data3 [31:0]  $end
$upscope $end
$scope module valutop_dat $end
$var wire   32  aaagb  rdv1_data(0) [31:0]  $end
$var wire   32  aaagc  rdv1_data(1) [31:0]  $end
$var wire   32  aaagd  rdv1_data(2) [31:0]  $end
$var wire   32  aaage  rdv1_data(3) [31:0]  $end
$var wire   32  aaagf  rdv1_data(4) [31:0]  $end
$var wire   32  aaagg  rdv1_data(5) [31:0]  $end
$var wire   32  aaagh  rdv1_data(6) [31:0]  $end
$var wire   32  aaagi  rdv1_data(7) [31:0]  $end
$var wire   32  aaagj  warp_id [31:0]  $end
$scope module ins $end
$var wire   32  aaafs  ins_bit [31:0]  $end
$var wire   32  aaaft  op [31:0]  $end
$var wire   32  aaafu  s1 [31:0]  $end
$var wire   32  aaafv  s2 [31:0]  $end
$var wire   32  aaafw  s3 [31:0]  $end
$var wire   32  aaafx  d [31:0]  $end
$var wire   32  aaafy  imm [31:0]  $end
$var wire    8  aaafz  mask [7:0]  $end
$var wire   32  aaaga  currentpc [31:0]  $end
$upscope $end
$upscope $end
$scope module vbranch_ins $end
$var wire   32  aaafh  ins_bit [31:0]  $end
$var wire   32  aaafi  op [31:0]  $end
$var wire   32  aaafj  s1 [31:0]  $end
$var wire   32  aaafk  s2 [31:0]  $end
$var wire   32  aaafl  s3 [31:0]  $end
$var wire   32  aaafm  d [31:0]  $end
$var wire   32  aaafn  imm [31:0]  $end
$var wire    8  aaafo  mask [7:0]  $end
$var wire   32  aaafp  currentpc [31:0]  $end
$upscope $end
$scope module vfputop_dat $end
$var wire   32  aaahb  rdf1_data(0) [31:0]  $end
$var wire   32  aaahc  rdf1_data(1) [31:0]  $end
$var wire   32  aaahd  rdf1_data(2) [31:0]  $end
$var wire   32  aaahe  rdf1_data(3) [31:0]  $end
$var wire   32  aaahf  rdf1_data(4) [31:0]  $end
$var wire   32  aaahg  rdf1_data(5) [31:0]  $end
$var wire   32  aaahh  rdf1_data(6) [31:0]  $end
$var wire   32  aaahi  rdf1_data(7) [31:0]  $end
$var wire   32  aaahj  warp_id [31:0]  $end
$scope module ins $end
$var wire   32  aaags  ins_bit [31:0]  $end
$var wire   32  aaagt  op [31:0]  $end
$var wire   32  aaagu  s1 [31:0]  $end
$var wire   32  aaagv  s2 [31:0]  $end
$var wire   32  aaagw  s3 [31:0]  $end
$var wire   32  aaagx  d [31:0]  $end
$var wire   32  aaagy  imm [31:0]  $end
$var wire    8  aaagz  mask [7:0]  $end
$var wire   32  aaaha  currentpc [31:0]  $end
$upscope $end
$upscope $end
$scope module wb_ins $end
$var wire   32  aaaix  ins_bit [31:0]  $end
$var wire   32  aaaiy  op [31:0]  $end
$var wire   32  aaaiz  s1 [31:0]  $end
$var wire   32  aaaja  s2 [31:0]  $end
$var wire   32  aaajb  s3 [31:0]  $end
$var wire   32  aaajc  d [31:0]  $end
$var wire   32  aaajd  imm [31:0]  $end
$var wire    8  aaaje  mask [7:0]  $end
$var wire   32  aaajf  currentpc [31:0]  $end
$upscope $end
$upscope $end
$enddefinitions  $end

$comment
All initial values are dumped below at time 0 sec = 0 timescale units.
$end

$dumpvars
b0 aaaaa
b0 aaaab
b0 aaaac
b0 aaaad
b0 aaaae
b0 aaaaf
b0 aaaag
b0 aaaah
b0 aaaai
b0 aaaaj
b0 aaaak
b0 aaaal
b0 aaaam
b0 aaaan
b0 aaaao
b0 aaaap
b0 aaaaq
b0 aaaar
b0 aaaas
b0 aaaat
b0 aaaau
b0 aaaav
b0 aaaaw
b0 aaaax
b0 aaaay
b0 aaaaz
b0 aaaba
b0 aaabb
b0 aaabc
b0 aaabd
b0 aaabe
b0 aaabf
0aaabg
0aaabh
0aaabi
b0 aaabj
0aaabk
0aaabl
0aaabm
b10000000000000000000000000000000 aaabn
b0 aaabo
b0 aaabp
b11111111111111111111111111111111 aaabq
b11111111111111111111111111111111 aaabr
b11111111111111111111111111111111 aaabs
b11111111111111111111111111111111 aaabt
b11111111111111111111111111111111 aaabu
b0 aaabv
b0 aaabw
b111100110000011100001010110000 aaabx
b111111101000011 aaaby
b11111111111111111111111111111111 aaabz
b11111111111111111111111111111111 aaaca
b11111111111111111111111111111111 aaacb
b11111111111111111111111111111111 aaacc
b11111111111111111111111111111111 aaacd
b0 aaace
b11011101010010111100001100000000 aaacf
0aaacg
0aaach
0aaaci
b11111111111111111111111111111111 aaacj
b0 aaack
b0 aaacl
b0 aaacm
b0 aaacn
b0 aaaco
b11111111111111111111111111111111 aaacp
b0 aaacq
b110 aaacr
b0 aaacs
0aaact
0aaacu
0aaacv
b0 aaacw
b11111111111111111111111111111111 aaacx
b0 aaacy
b0 aaacz
b0 aaada
b0 aaadb
b0 aaadc
b11111111111111111111111111111111 aaadd
b0 aaade
b110 aaadf
b0 aaadg
0aaadh
0aaadi
b0 aaadj
b111100110000101011000111010000 aaadk
b111111101000011 aaadl
b11111111111111111111111111111111 aaadm
b11111111111111111111111111111111 aaadn
b11111111111111111111111111111111 aaado
b11111111111111111111111111111111 aaadp
b11111111111111111111111111111111 aaadq
b0 aaadr
b11011101010010111100110111110000 aaads
b0 aaadt
0aaadu
0aaadv
b0 aaadw
0aaadx
0aaady
0aaadz
0aaaea
b0 aaaeb
b0 aaaec
b0 aaaed
1aaaee
1aaaef
b0 aaaeg
b0 aaaeh
b11111111111111111111111111111111 aaaei
b11111111111111111111111111111111 aaaej
b11111111111111111111111111111111 aaaek
b11111111111111111111111111111111 aaael
b11111111111111111111111111111111 aaaem
b0 aaaen
b0 aaaeo
b0 aaaep
b0 aaaeq
b0 aaaer
b0 aaaes
b11111111111111111111111111111111 aaaet
b11111111111111111111111111111111 aaaeu
b11111111111111111111111111111111 aaaev
b11111111111111111111111111111111 aaaew
b11111111111111111111111111111111 aaaex
b0 aaaey
b0 aaaez
b0 aaafa
b0 aaafb
b0 aaafc
1aaafd
0aaafe
b0 aaaff
b0 aaafg
b11011101010010111100100000000000 aaafh
b111111111111110 aaafi
b11111111111111111111111111111111 aaafj
b11111111111111111111111111111111 aaafk
b11111111111111111111111111111111 aaafl
b11111111111111111111111111111111 aaafm
b11111111111111111111111111111111 aaafn
b0 aaafo
b11011101010010111100010000000000 aaafp
b0 aaafq
1aaafr
b0 aaafs
b0 aaaft
b11111111111111111111111111111111 aaafu
b11111111111111111111111111111111 aaafv
b11111111111111111111111111111111 aaafw
b11111111111111111111111111111111 aaafx
b11111111111111111111111111111111 aaafy
b0 aaafz
b0 aaaga
b0 aaagb
b0 aaagc
b0 aaagd
b0 aaage
b0 aaagf
b0 aaagg
b0 aaagh
b0 aaagi
b0 aaagj
b0 aaagk
0aaagl
0aaagm
b0 aaagn
b11111111 aaago
0aaagp
1aaagq
1aaagr
b0 aaags
b0 aaagt
b11111111111111111111111111111111 aaagu
b11111111111111111111111111111111 aaagv
b11111111111111111111111111111111 aaagw
b11111111111111111111111111111111 aaagx
b11111111111111111111111111111111 aaagy
b0 aaagz
b0 aaaha
b0 aaahb
b0 aaahc
b0 aaahd
b0 aaahe
b0 aaahf
b0 aaahg
b0 aaahh
b0 aaahi
b0 aaahj
b0 aaahk
1aaahl
1aaahm
b0 aaahn
b0 aaaho
b11111111111111111111111111111111 aaahp
b11111111111111111111111111111111 aaahq
b11111111111111111111111111111111 aaahr
b11111111111111111111111111111111 aaahs
b11111111111111111111111111111111 aaaht
b0 aaahu
b0 aaahv
b0 aaahw
b0 aaahx
b0 aaahy
b0 aaahz
b0 aaaia
b0 aaaib
b0 aaaic
b0 aaaid
b0 aaaie
r0 aaaif
r0 aaaig
r0 aaaih
r0 aaaii
r0 aaaij
r0 aaaik
r0 aaail
r0 aaaim
b0 aaain
b0 aaaio
0aaaip
0aaaiq
0aaair
0aaais
0aaait
0aaaiu
0aaaiv
0aaaiw
b111100110000110100110101100000 aaaix
b111111101000011 aaaiy
b11111111111111111111111111111111 aaaiz
b11111111111111111111111111111111 aaaja
b11111111111111111111111111111111 aaajb
b11111111111111111111111111111111 aaajc
b11111111111111111111111111111111 aaajd
b0 aaaje
b11011101010010111100110111110000 aaajf
b0 aaajg
b0 aaajh
b0 aaaji
b0 aaajj
b0 aaajk
b0 aaajl
b0 aaajm
b0 aaajn
b0 aaajo
b0 aaajp
b0 aaajq
b0 aaajr
b0 aaajs
b0 aaajt
b0 aaaju
b0 aaajv
b0 aaajw
b0 aaajx
b0 aaajy
b0 aaajz
b0 aaaka
b1011000 aaakb
b1011000 aaakc
b0 aaakd
b0 aaake
b0 aaakf
b0 aaakg
b0 aaakh
b0 aaaki
b0 aaakj
b0 aaakk
b0 aaakl
b0 aaakm
b11110 aaakn
b11110 aaako
b0 aaakp
b0 aaakq
b0 aaakr
b0 aaaks
b0 aaakt
b0 aaaku
b0 aaakv
$end

#5
1aaabg
b1111111111111111111111111111100 aaabn
b11000110010111 aaabo
b11000110010111 aaabx
b1110 aaaby
b0 aaabz
b0 aaaca
b0 aaacb
b11 aaacc
b11000000000000 aaacd
b10000000000000000000000000000000 aaacf
1aaach
b0 aaacj
b11111111111111111111111111111111 aaaco
b0 aaacr
1aaadi

#10
0aaabg
1aaabh

#15
1aaabg
1aaabl
b10000000000000000000000000000000 aaabn
b0 aaabq
b0 aaabr
b0 aaabs
b0 aaabt

#20
0aaabg

#25
1aaabg
1aaabm
b10000000000000000000000000000100 aaabn
b11111111111111111111111111111111 aaabq
b11111111111111111111111111111111 aaabr
b11111111111111111111111111111111 aaabs
b11111111111111111111111111111111 aaabt

#30
0aaabg

#35
1aaabg
b10000000000000000000000000001000 aaabn
b10000000000000011000000110010011 aaabo
b10000000000000011000000110010011 aaabx
b10 aaaby
b11 aaabz
b11111111111111111111100000000000 aaacd
b10000000000000000000000000000100 aaacf
1aaacg
0aaach
1aaaci
b11000110010111 aaacj
b1110 aaack
b11 aaaco
b11000000000000 aaacp
b10000000000000000000000000000000 aaacr
b1 aaacs
1aaacu
b1 aaacw
b11000110010111 aaacx
b1110 aaacy
b11 aaadc
b11000000000000 aaadd
b11111111 aaade
b10000000000000000000000000000000 aaadf
1aaadh

#40
0aaabg

#45
1aaabg
b10000000000000000000000000001100 aaabn
b10000000000000111010010011 aaabo
b10000000000000111010010011 aaabx
b0 aaabz
b11101 aaacc
b100000 aaacd
b10000000000000000000000000001000 aaacf
0aaacg
b10000000000000011000000110010011 aaacj
b10 aaack
b11 aaacl
b11111111111111111111100000000000 aaacp
b10000000000000000000000000000100 aaacr
0aaacu
b10 aaacw
b1 aaadg
b1 aaadj
b11000110010111 aaadk
b1110 aaadl
b0 aaadm
b0 aaadn
b0 aaado
b11 aaadp
b11000000000000 aaadq
b11111111 aaadr
b10000000000000000000000000000000 aaads
1aaadu
1aaadv
1aaadx
b10000000000000000000000000000000 aaaeb
b11000000000000 aaaec

#50
0aaabg

#55
1aaabg
b10000000000000000000000000010000 aaabn
b1101000011101111111011010111 aaabo
b1101000011101111111011010111 aaabx
b1000000110 aaaby
b11101 aaabz
b10000 aaaca
b10000 aaacb
b11111111111111111111111111111111 aaacd
b10000000000000000000000000001100 aaacf
b10 aaacs
b11 aaacw
b10 aaadg
b1 aaadt
0aaadu
0aaadv
0aaadx
0aaaee

#60
0aaabg

#65
1aaabg
b10000000000000000000000000010100 aaabn
b10111010110111 aaabo
b10111010110111 aaabx
b1110110 aaaby
b0 aaabz
b0 aaaca
b0 aaacb
b10000000000000 aaacd
b10000000000000000000000000010000 aaacf
b11 aaacs
b100 aaacw
b11 aaadg
b10 aaadj
b10 aaadt
1aaadu
1aaadv
b1 aaadw
1aaadx
1aaaee
0aaaef
b11000110010111 aaaeg
b1110 aaaeh
b0 aaaei
b0 aaaej
b0 aaaek
b11 aaael
b11000000000000 aaaem
b11111111 aaaen
b10000000000000000000000000000000 aaaeo
b10000000000000000011000000000000 aaaeq
b11000110010111 aaaer
b1110 aaaes
b0 aaaet
b0 aaaeu
b0 aaaev
b11 aaaew
b11000000000000 aaaex
b11111111 aaaey
b10000000000000000000000000000000 aaaez
b10000000000000000011000000000000 aaafb
b1 aaafc
1aaaip
1aaais
1aaaiw
b11000110010111 aaaix
b1110 aaaiy
b0 aaaiz
b0 aaaja
b0 aaajb
b11 aaajc
b11000000000000 aaajd
b11111111 aaaje
b10000000000000000000000000000000 aaajf

#70
0aaabg

#75
1aaabg
b10000000000000000000000000011000 aaabn
b110000000011101010111011110011 aaabo
b110000000011101010111011110011 aaabx
b110000 aaaby
b11101 aaabz
b11111111111111111111111111111111 aaacd
b10000000000000000000000000010100 aaacf
1aaacg
b100 aaacs
1aaacu
b1 aaacw
b10000000000000011000000110010011 aaacx
b10 aaacy
b11 aaacz
b11111111111111111111100000000000 aaadd
b10000000000000000000000000000100 aaadf
b0 aaadg
b11 aaadt
0aaadu
0aaadv
0aaadx
0aaaee
1aaaef
b0 aaafc
0aaaip
0aaais
0aaaiw
b10000000000000000011000000000000 aaajk

#80
0aaabg

#85
1aaabg
b10000000000000000000000000011100 aaabn
b111010010011 aaabo
b111010010011 aaabx
b10 aaaby
b0 aaabz
b0 aaacd
b10000000000000000000000000011000 aaacf
b10000000000000111010010011 aaacj
b0 aaacl
b11101 aaaco
b100000 aaacp
b10000000000000000000000000001000 aaacr
b10000000000000111010010011 aaacx
b0 aaacz
b11101 aaadc
b100000 aaadd
b10000000000000000000000000001000 aaadf
b11 aaadj
b1 aaadt
1aaadu
1aaadv
b0 aaadw
1aaadx
1aaaee
0aaaef
b10 aaaep
b10 aaafa
b1 aaafc
1aaaip
1aaais
1aaaiw
b10 aaajg

#90
0aaabg

#95
1aaabg
b10000000000000000000000000100000 aaabn
b10000000011000000010000101110011 aaabo
b10000000011000000010000101110011 aaabx
b110000 aaaby
b110 aaaca
b110 aaacb
b10 aaacc
b11111111111111111111111111111111 aaacd
b10000000000000000000000000011100 aaacf
0aaacg
b1101000011101111111011010111 aaacj
b1000000110 aaack
b11101 aaacl
b10000 aaacm
b10000 aaacn
b11111111111111111111111111111111 aaacp
b10000000000000000000000000001100 aaacr
0aaacu
b11 aaacw
b10000000000000011000000110010011 aaacx
b11 aaacz
b11 aaadc
b11111111111111111111100000000000 aaadd
b10000000000000000000000000000100 aaadf
b10 aaadg
b11 aaadt
0aaadu
0aaadv
0aaadx
0aaaee
1aaaef
b0 aaafc
0aaaip
0aaais
0aaaiw

#100
0aaabg

#105
1aaabg
b10000000000000000000000000100100 aaabn
b10000000011100000010001001110011 aaabo
b10000000011100000010001001110011 aaabx
b111 aaaca
b111 aaacb
b100 aaacc
b10000000000000000000000000100000 aaacf
b101 aaacs
1aaacv
b10000000000000111010010011 aaacx
b0 aaacz
b11101 aaadc
b100000 aaadd
b10000000000000000000000000001000 aaadf
b100 aaadj
1aaadu
1aaadv
b1 aaadw
1aaadx
1aaaee
0aaaef
b1 aaaep
b1 aaafa
b1 aaafc
1aaaip
1aaais
1aaaiw
b1 aaajg

#110
0aaabg

#115
1aaabg
b10000000000000000000000000101000 aaabn
b10010100010111 aaabo
b10010100010111 aaabx
b1110 aaaby
b0 aaaca
b0 aaacb
b1010 aaacc
b10000000000000 aaacd
b10000000000000000000000000100100 aaacf
b110 aaacs
b10 aaacw
b10000000000000011000000110010011 aaacx
b11 aaacz
b11 aaadc
b11111111111111111111100000000000 aaadd
b10000000000000000000000000000100 aaadf
b1 aaadg
0aaadi
b10000000000000111010010011 aaadk
b10 aaadl
b11101 aaadp
b100000 aaadq
b10000000000000000000000000001000 aaads
b0 aaadt
0aaadu
0aaadv
0aaadx
0aaaee
1aaaef
b0 aaafc
0aaaip
0aaais
0aaaiw

#120
0aaabg

#125
1aaabg
b10000000000000000000000000101100 aaabn
b11111110100001010000010100010011 aaabo
b11111110100001010000010100010011 aaabx
b10 aaaby
b1010 aaabz
b1000 aaaca
b1000 aaacb
b11111111111111111111111111101000 aaacd
b10000000000000000000000000101000 aaacf
b111 aaacs
1aaadi
b10000000000000011000000110010011 aaadk
b11 aaadm
b11 aaadp
b11111111111111111111100000000000 aaadq
b10000000000000000000000000000100 aaads
1aaadu
1aaadv
b10 aaadw
1aaadx
b10000000000000000011000000000000 aaaeb
b11111111111111111111100000000000 aaaec
1aaaee
0aaaef
b11 aaaep
b11 aaafa
b1 aaafc
1aaaip
1aaais
1aaaiw
b11 aaajg

#130
0aaabg

#135
1aaabg
b10000000000000000000000000110000 aaabn
b10011000010111 aaabo
b10011000010111 aaabx
b1110 aaaby
b0 aaabz
b0 aaaca
b0 aaacb
b1100 aaacc
b10000000000000 aaacd
b10000000000000000000000000101100 aaacf
b1000 aaacs
b100 aaacw
b11 aaadg
0aaadi
b10000000000000111010010011 aaadk
b0 aaadm
b11101 aaadp
b100000 aaadq
b10000000000000000000000000001000 aaads
b10 aaadt
0aaadu
0aaadv
0aaadx
0aaaee
1aaaef
b0 aaafc
0aaaip
0aaais
0aaaiw

#140
0aaabg

