sc-code/sm/BASE_wave.vcd
$date
     Mar 27, 2023       01:17:53
$end

$version
 SystemC 2.3.4-Accellera --- Mar  1 2023 22:54:03
$end

$timescale
     1 ns
$end

$scope module SystemC $end
$var wire    1  aaaaa  Clk       $end
$var wire    1  aaaab  Rst_n       $end
$var wire    1  aaaac  jump       $end
$var wire   32  aaaad  jump_addr [31:0]  $end
$var wire    1  aaaae  fetch_valid       $end
$var wire   32  aaaaf  pc [31:0]  $end
$var wire    1  aaaal  dispatch       $end
$var wire    1  aaaam  ibuf_empty       $end
$var wire    1  aaaan  ibuf_swallow       $end
$var wire   32  aaaat  ififo_elem_num [31:0]  $end
$var wire    1  aaaau  wait_bran       $end
$var wire    1  aaaav  can_dispatch       $end
$var wire    1  aaaaw  opc_full       $end
$var wire   32  aaabc  opcfifo_elem_num [31:0]  $end
$var wire    1  aaabi  emit       $end
$var wire    1  aaabj  findemit       $end
$var wire   32  aaabk  emit_idx [31:0]  $end
$var wire    1  aaabl  emito_salu       $end
$var wire    1  aaabm  emito_valu       $end
$var wire    1  aaabn  emito_vfpu       $end
$var wire    1  aaabo  emito_lsu       $end
$var wire    1  aaabp  salu_ready       $end
$var wire    5  aaabq  rss1_addr [4:0]  $end
$var wire    5  aaabr  rss2_addr [4:0]  $end
$var wire   32  aaabs  rss1_data [31:0]  $end
$var wire   32  aaabt  rss2_data [31:0]  $end
$var wire    1  aaabu  salufifo_empty       $end
$var wire   32  aaacb  salufifo_elem_num [31:0]  $end
$var wire    1  aaacc  valu_ready       $end
$var wire    5  aaacd  rsv1_addr [4:0]  $end
$var wire    5  aaace  rsv2_addr [4:0]  $end
$var wire    1  aaacv  valufifo_empty       $end
$var wire   32  aaadj  valufifo_elem_num [31:0]  $end
$var wire    1  aaadk  vfpu_ready       $end
$var wire    5  aaadl  rsf1_addr [4:0]  $end
$var wire    5  aaadm  rsf2_addr [4:0]  $end
$var wire    1  aaaed  vfpufifo_empty       $end
$var wire   32  aaaer  vfpufifo_elem_num [31:0]  $end
$var wire    1  aaaes  lsu_ready       $end
$var wire    1  aaaet  lsufifo_empty       $end
$var wire   32  aaafq  lsufifo_elem_num [31:0]  $end
$var wire    1  aaafr  write_s       $end
$var wire    1  aaafs  write_v       $end
$var wire    1  aaaft  write_f       $end
$var wire    1  aaafu  execpop_salu       $end
$var wire    1  aaafv  execpop_valu       $end
$var wire    1  aaafw  execpop_vfpu       $end
$var wire    1  aaafx  execpop_lsu       $end
$var wire    1  aaafy  wb_ena       $end
$var wire   32  aaage  s_regfile(0) [31:0]  $end
$var wire   32  aaagf  s_regfile(1) [31:0]  $end
$var wire   32  aaagg  s_regfile(2) [31:0]  $end
$var wire   32  aaagh  s_regfile(3) [31:0]  $end
$var wire   32  aaagi  s_regfile(4) [31:0]  $end
$var wire   32  aaagj  s_regfile(5) [31:0]  $end
$var wire   32  aaagk  s_regfile(6) [31:0]  $end
$var wire   32  aaagl  s_regfile(7) [31:0]  $end
$var wire   32  aaagm  v_regfile(0)(0) [31:0]  $end
$var wire   32  aaagn  v_regfile(1)(0) [31:0]  $end
$var wire   32  aaago  v_regfile(2)(0) [31:0]  $end
$var wire   32  aaagp  v_regfile(3)(0) [31:0]  $end
$var wire   32  aaagq  v_regfile(4)(0) [31:0]  $end
$var wire   32  aaagr  v_regfile(5)(0) [31:0]  $end
$var wire   32  aaags  v_regfile(6)(0) [31:0]  $end
$var wire   32  aaagt  v_regfile(7)(0) [31:0]  $end
$scope module fetch_ins $end
$var wire   32  aaaag  op [31:0]  $end
$var wire   32  aaaah  s1 [31:0]  $end
$var wire   32  aaaai  s2 [31:0]  $end
$var wire   32  aaaaj  d [31:0]  $end
$var wire   32  aaaak  jump_addr [31:0]  $end
$upscope $end
$scope module ibuftop_ins $end
$var wire   32  aaaao  op [31:0]  $end
$var wire   32  aaaap  s1 [31:0]  $end
$var wire   32  aaaaq  s2 [31:0]  $end
$var wire   32  aaaar  d [31:0]  $end
$var wire   32  aaaas  jump_addr [31:0]  $end
$upscope $end
$scope module issue_ins $end
$var wire   32  aaaax  op [31:0]  $end
$var wire   32  aaaay  s1 [31:0]  $end
$var wire   32  aaaaz  s2 [31:0]  $end
$var wire   32  aaaba  d [31:0]  $end
$var wire   32  aaabb  jump_addr [31:0]  $end
$upscope $end
$scope module lsutop_dat $end
$var wire   32  aaaez  rds1_data [31:0]  $end
$var wire   32  aaafa  rdv1_data(0) [31:0]  $end
$var wire   32  aaafb  rdv1_data(1) [31:0]  $end
$var wire   32  aaafc  rdv1_data(2) [31:0]  $end
$var wire   32  aaafd  rdv1_data(3) [31:0]  $end
$var wire   32  aaafe  rdv1_data(4) [31:0]  $end
$var wire   32  aaaff  rdv1_data(5) [31:0]  $end
$var wire   32  aaafg  rdv1_data(6) [31:0]  $end
$var wire   32  aaafh  rdv1_data(7) [31:0]  $end
$var real    1  aaafi  rdf1_data(0)       $end
$var real    1  aaafj  rdf1_data(1)       $end
$var real    1  aaafk  rdf1_data(2)       $end
$var real    1  aaafl  rdf1_data(3)       $end
$var real    1  aaafm  rdf1_data(4)       $end
$var real    1  aaafn  rdf1_data(5)       $end
$var real    1  aaafo  rdf1_data(6)       $end
$var real    1  aaafp  rdf1_data(7)       $end
$scope module ins $end
$var wire   32  aaaeu  op [31:0]  $end
$var wire   32  aaaev  s1 [31:0]  $end
$var wire   32  aaaew  s2 [31:0]  $end
$var wire   32  aaaex  d [31:0]  $end
$var wire   32  aaaey  jump_addr [31:0]  $end
$upscope $end
$upscope $end
$scope module opctop_ins $end
$var wire   32  aaabd  op [31:0]  $end
$var wire   32  aaabe  s1 [31:0]  $end
$var wire   32  aaabf  s2 [31:0]  $end
$var wire   32  aaabg  d [31:0]  $end
$var wire   32  aaabh  jump_addr [31:0]  $end
$upscope $end
$scope module rsf1_data $end
$var real    1  aaadn  data(0)       $end
$var real    1  aaado  data(1)       $end
$var real    1  aaadp  data(2)       $end
$var real    1  aaadq  data(3)       $end
$var real    1  aaadr  data(4)       $end
$var real    1  aaads  data(5)       $end
$var real    1  aaadt  data(6)       $end
$var real    1  aaadu  data(7)       $end
$upscope $end
$scope module rsf2_data $end
$var real    1  aaadv  data(0)       $end
$var real    1  aaadw  data(1)       $end
$var real    1  aaadx  data(2)       $end
$var real    1  aaady  data(3)       $end
$var real    1  aaadz  data(4)       $end
$var real    1  aaaea  data(5)       $end
$var real    1  aaaeb  data(6)       $end
$var real    1  aaaec  data(7)       $end
$upscope $end
$scope module rsv1_data $end
$var wire   32  aaacf  data(0) [31:0]  $end
$var wire   32  aaacg  data(1) [31:0]  $end
$var wire   32  aaach  data(2) [31:0]  $end
$var wire   32  aaaci  data(3) [31:0]  $end
$var wire   32  aaacj  data(4) [31:0]  $end
$var wire   32  aaack  data(5) [31:0]  $end
$var wire   32  aaacl  data(6) [31:0]  $end
$var wire   32  aaacm  data(7) [31:0]  $end
$upscope $end
$scope module rsv2_data $end
$var wire   32  aaacn  data(0) [31:0]  $end
$var wire   32  aaaco  data(1) [31:0]  $end
$var wire   32  aaacp  data(2) [31:0]  $end
$var wire   32  aaacq  data(3) [31:0]  $end
$var wire   32  aaacr  data(4) [31:0]  $end
$var wire   32  aaacs  data(5) [31:0]  $end
$var wire   32  aaact  data(6) [31:0]  $end
$var wire   32  aaacu  data(7) [31:0]  $end
$upscope $end
$scope module salutop_dat $end
$var wire   32  aaaca  data [31:0]  $end
$scope module ins $end
$var wire   32  aaabv  op [31:0]  $end
$var wire   32  aaabw  s1 [31:0]  $end
$var wire   32  aaabx  s2 [31:0]  $end
$var wire   32  aaaby  d [31:0]  $end
$var wire   32  aaabz  jump_addr [31:0]  $end
$upscope $end
$upscope $end
$scope module valutop_dat $end
$var wire   32  aaadb  rdv1_data(0) [31:0]  $end
$var wire   32  aaadc  rdv1_data(1) [31:0]  $end
$var wire   32  aaadd  rdv1_data(2) [31:0]  $end
$var wire   32  aaade  rdv1_data(3) [31:0]  $end
$var wire   32  aaadf  rdv1_data(4) [31:0]  $end
$var wire   32  aaadg  rdv1_data(5) [31:0]  $end
$var wire   32  aaadh  rdv1_data(6) [31:0]  $end
$var wire   32  aaadi  rdv1_data(7) [31:0]  $end
$scope module ins $end
$var wire   32  aaacw  op [31:0]  $end
$var wire   32  aaacx  s1 [31:0]  $end
$var wire   32  aaacy  s2 [31:0]  $end
$var wire   32  aaacz  d [31:0]  $end
$var wire   32  aaada  jump_addr [31:0]  $end
$upscope $end
$upscope $end
$scope module vfputop_dat $end
$var real    1  aaaej  rdf1_data(0)       $end
$var real    1  aaaek  rdf1_data(1)       $end
$var real    1  aaael  rdf1_data(2)       $end
$var real    1  aaaem  rdf1_data(3)       $end
$var real    1  aaaen  rdf1_data(4)       $end
$var real    1  aaaeo  rdf1_data(5)       $end
$var real    1  aaaep  rdf1_data(6)       $end
$var real    1  aaaeq  rdf1_data(7)       $end
$scope module ins $end
$var wire   32  aaaee  op [31:0]  $end
$var wire   32  aaaef  s1 [31:0]  $end
$var wire   32  aaaeg  s2 [31:0]  $end
$var wire   32  aaaeh  d [31:0]  $end
$var wire   32  aaaei  jump_addr [31:0]  $end
$upscope $end
$upscope $end
$scope module wb_ins $end
$var wire   32  aaafz  op [31:0]  $end
$var wire   32  aaaga  s1 [31:0]  $end
$var wire   32  aaagb  s2 [31:0]  $end
$var wire   32  aaagc  d [31:0]  $end
$var wire   32  aaagd  jump_addr [31:0]  $end
$upscope $end
$upscope $end
$enddefinitions  $end

$comment
All initial values are dumped below at time 0 sec = 0 timescale units.
$end

$dumpvars
0aaaaa
0aaaab
0aaaac
b0 aaaad
0aaaae
b11111111111111111111111111111111 aaaaf
b0 aaaag
b0 aaaah
b0 aaaai
b0 aaaaj
b11111111111111111111111111111111 aaaak
0aaaal
0aaaam
0aaaan
b0 aaaao
b0 aaaap
b0 aaaaq
b0 aaaar
b11111111111111111111111111111111 aaaas
b0 aaaat
0aaaau
0aaaav
0aaaaw
b0 aaaax
b0 aaaay
b0 aaaaz
b0 aaaba
b11111111111111111111111111111111 aaabb
b0 aaabc
b0 aaabd
b11111111111111111111111111111111 aaabe
b11111111111111111111111111111111 aaabf
b11111111111111111111111111111111 aaabg
b11111111111111111111111111111111 aaabh
0aaabi
0aaabj
b0 aaabk
0aaabl
0aaabm
0aaabn
0aaabo
1aaabp
b0 aaabq
b0 aaabr
b0 aaabs
b0 aaabt
1aaabu
b0 aaabv
b11111111111111111111111111111111 aaabw
b11111111111111111111111111111111 aaabx
b11111111111111111111111111111111 aaaby
b11111111111111111111111111111111 aaabz
b0 aaaca
b0 aaacb
1aaacc
b0 aaacd
b0 aaace
b0 aaacf
b0 aaacg
b0 aaach
b0 aaaci
b0 aaacj
b0 aaack
b0 aaacl
b0 aaacm
b0 aaacn
b0 aaaco
b0 aaacp
b0 aaacq
b0 aaacr
b0 aaacs
b0 aaact
b0 aaacu
1aaacv
b0 aaacw
b11111111111111111111111111111111 aaacx
b11111111111111111111111111111111 aaacy
b11111111111111111111111111111111 aaacz
b11111111111111111111111111111111 aaada
b0 aaadb
b0 aaadc
b0 aaadd
b0 aaade
b0 aaadf
b0 aaadg
b0 aaadh
b0 aaadi
b0 aaadj
1aaadk
b0 aaadl
b0 aaadm
r0 aaadn
r0 aaado
r0 aaadp
r0 aaadq
r0 aaadr
r0 aaads
r0 aaadt
r0 aaadu
r0 aaadv
r0 aaadw
r0 aaadx
r0 aaady
r0 aaadz
r0 aaaea
r0 aaaeb
r0 aaaec
1aaaed
b0 aaaee
b11111111111111111111111111111111 aaaef
b11111111111111111111111111111111 aaaeg
b11111111111111111111111111111111 aaaeh
b11111111111111111111111111111111 aaaei
r0 aaaej
r0 aaaek
r0 aaael
r0 aaaem
r0 aaaen
r0 aaaeo
r0 aaaep
r0 aaaeq
b0 aaaer
1aaaes
1aaaet
b0 aaaeu
b11111111111111111111111111111111 aaaev
b11111111111111111111111111111111 aaaew
b11111111111111111111111111111111 aaaex
b11111111111111111111111111111111 aaaey
b0 aaaez
b0 aaafa
b0 aaafb
b0 aaafc
b0 aaafd
b0 aaafe
b0 aaaff
b0 aaafg
b0 aaafh
r0 aaafi
r0 aaafj
r0 aaafk
r0 aaafl
r0 aaafm
r0 aaafn
r0 aaafo
r0 aaafp
b0 aaafq
0aaafr
0aaafs
0aaaft
0aaafu
0aaafv
0aaafw
0aaafx
0aaafy
b111111111111110 aaafz
b11111111111111111111111111111111 aaaga
b11111111111111111111111111111111 aaagb
b11111111111111111111111111111111 aaagc
b11111111111111111111111111111111 aaagd
b101100 aaage
b11111111111111111111111111110110 aaagf
b1010011010 aaagg
b100000 aaagh
b100 aaagi
b1101111000 aaagj
b110 aaagk
b10110 aaagl
b1 aaagm
b11 aaagn
b11111111111111111111111111110110 aaago
b111 aaagp
b11111111111111111111111111111111 aaagq
b1010 aaagr
b1000 aaags
b1 aaagt
$end

#5
1aaaaa
1aaaam
b11111111111111111111111111111111 aaaap

#10
0aaaaa
1aaaab

#15
1aaaaa
1aaaae
b0 aaaaf
b100 aaaag
b11 aaaah
b1 aaaai
b10 aaaaj

#20
0aaaaa

#25
1aaaaa
b1 aaaaf
b10 aaaag
b1 aaaah
b11 aaaai
b110 aaaaj
1aaaal
0aaaam
1aaaan
b100 aaaao
b11 aaaap
b1 aaaaq
b10 aaaar
b1 aaaat
1aaaav
b100 aaaax
b11 aaaay
b1 aaaaz
b10 aaaba

#30
0aaaaa

#35
1aaaaa
b10 aaaaf
b1 aaaag
b100 aaaah
b1 aaaai
b1001 aaaaj
b10 aaaao
b1 aaaap
b11 aaaaq
b110 aaaar
b10 aaaax
b1 aaaay
b11 aaaaz
b110 aaaba
b1 aaabc

#40
0aaaaa

#45
1aaaaa
b11 aaaaf
b11 aaaag
b11 aaaah
b1001 aaaai
b100 aaaaj
b1 aaaao
b100 aaaap
b1 aaaaq
b1001 aaaar
b1 aaaax
b100 aaaay
b1 aaaaz
b1001 aaaba
b10 aaabc

#50
0aaaaa

#55
1aaaaa
b100 aaaaf
b101 aaaag
b111 aaaah
b100 aaaai
b101 aaaaj
b11 aaaao
b11 aaaap
b1001 aaaaq
b100 aaaar
b11 aaaax
b11 aaaay
b1001 aaaaz
b100 aaaba
b11 aaabc
b100 aaabd
b11 aaabe
b1 aaabf
b10 aaabg
1aaabi
1aaabj
1aaabm
b1 aaacf
b1 aaacg
b1 aaach
b1 aaaci
b1 aaacj
b1 aaack
b1 aaacl
b1 aaacm
b1 aaacn
b1 aaaco
b1 aaacp
b1 aaacq
b1 aaacr
b1 aaacs
b1 aaact
b1 aaacu

#60
0aaaaa

#65
1aaaaa
b101 aaaaf
b10 aaaah
b1 aaaai
b100 aaaaj
b101 aaaao
b111 aaaap
b100 aaaaq
b101 aaaar
b101 aaaax
b111 aaaay
b100 aaaaz
b101 aaaba
b10 aaabd
b1 aaabe
b11 aaabf
b110 aaabg
b1 aaabk
1aaabl
0aaabm
b101100 aaabs
b101100 aaabt
0aaacc

#70
0aaaaa

#75
1aaaaa
b110 aaaaf
b110 aaaag
b11 aaaah
b100 aaaai
b10 aaaaj
0aaaal
b10 aaaap
b1 aaaaq
b100 aaaar
0aaaav
b1 aaabd
b100 aaabe
b1 aaabf
b1001 aaabg
b10 aaabk
0aaabl
1aaabo
0aaabp
1aaacc

#80
0aaaaa

#85
1aaaaa
b111 aaaaf
b111 aaaag
b110 aaaah
b111 aaaai
b11111111111111111111111111111011 aaaaj
b10 aaaat
b10 aaabc
b11 aaabd
b11 aaabe
b1001 aaabf
b100 aaabg
0aaabi
0aaabj
0aaabo
1aaabp
0aaabu
b10 aaabv
b1 aaabw
b11 aaabx
b110 aaaby
b1011000 aaaca
b1 aaacb
0aaaes
1aaafr
1aaafu
1aaafy
b10 aaafz
b1 aaaga
b11 aaagb
b110 aaagc

#90
0aaaaa

#95
1aaaaa
b1000 aaaaf
b100 aaaag
b0 aaaah
b1 aaaai
b10 aaaaj
b11 aaaat
b101 aaabd
b111 aaabe
b100 aaabf
b101 aaabg
1aaabi
1aaabj
b1 aaabk
1aaabm
1aaabu
b0 aaacb
0aaafr
0aaafu
0aaafy
b1011000 aaagk

#100
0aaaaa

#105
1aaaaa
b1001 aaaaf
b10 aaaag
b1 aaaah
b11 aaaai
b11 aaaaj
b100 aaaat
b1 aaabc
b11 aaabd
b11 aaabe
b1001 aaabf
b100 aaabg
0aaabi
0aaabj
0aaabm
0aaacc

#110
0aaaaa

#115
1aaaaa
b1010 aaaaf
b1 aaaag
b0 aaaah
b1001 aaaaj
b101 aaaat
1aaabi
1aaabj
b0 aaabk
1aaabo
1aaacc
0aaacv
b100 aaacw
b11 aaacx
b1 aaacy
b10 aaacz
b10 aaadb
b10 aaadc
b10 aaadd
b10 aaade
b10 aaadf
b10 aaadg
b10 aaadh
b10 aaadi
b1 aaadj
1aaaes
1aaafs
1aaafv
1aaafy
b100 aaafz
b11 aaaga
b1 aaagb
b10 aaagc

#120
0aaaaa

#125
1aaaaa
b1011 aaaaf
b11 aaaag
b11 aaaah
b1000 aaaai
b100 aaaaj
b110 aaaat
b0 aaabc
0aaabi
0aaabj
0aaabo
1aaacv
b0 aaadj
0aaaes
0aaafs
0aaafv
0aaafy
b10 aaago

#130
0aaaaa

#135
1aaaaa
b1100 aaaaf
b101 aaaaj
b111 aaaat
0aaaet
b1 aaaeu
b100 aaaev
b1 aaaew
b1001 aaaex
b1 aaafq
1aaafr
1aaafx
1aaafy
b1 aaafz
b100 aaaga
b1001 aaagc

#140
0aaaaa

#145
1aaaaa
b1101 aaaaf
b110 aaaaj
b1000 aaaat
1aaaet
b0 aaafq
0aaafr
0aaafx
0aaafy

#150
0aaaaa

#155
1aaaaa
b1110 aaaaf
b111 aaaaj
b1001 aaaat
0aaacv
b101 aaacw
b111 aaacx
b100 aaacy
b101 aaacz
b101101 aaadb
b101101 aaadc
b101101 aaadd
b101101 aaade
b101101 aaadf
b101101 aaadg
b101101 aaadh
b101101 aaadi
b1 aaadj
1aaaes
1aaafs
1aaafv
1aaafy
b101 aaafz
b111 aaaga
b100 aaagb
b101 aaagc

#160
0aaaaa

#165
1aaaaa
b1111 aaaaf
b1000 aaaaj
b1010 aaaat
1aaacv
b0 aaadj
0aaafs
0aaafv
0aaafy
b101101 aaagr

#170
0aaaaa

#175
1aaaaa
0aaaae
0aaaan

#180
0aaaaa

#185
1aaaaa
0aaaet
b11 aaaeu
b11 aaaev
b1001 aaaew
b100 aaaex
b1 aaafq
1aaafs
1aaafx
1aaafy
b11 aaafz
b11 aaaga
b1001 aaagb
b100 aaagc

#190
0aaaaa

#195
1aaaaa
1aaaal
1aaaav
b10 aaaay
b1 aaaaz
b100 aaaba
1aaaet
b0 aaafq
0aaafs
0aaafx
0aaafy
b0 aaagq

#200
0aaaaa

#205
1aaaaa
b110 aaaao
b11 aaaap
b100 aaaaq
b10 aaaar
b1001 aaaat
b110 aaaax
b11 aaaay
b100 aaaaz
b10 aaaba
b1 aaabc

#210
0aaaaa

#215
1aaaaa
b111 aaaao
b110 aaaap
b111 aaaaq
b11111111111111111111111111111011 aaaar
b11 aaaas
b1000 aaaat
b111 aaaax
b110 aaaay
b111 aaaaz
b11111111111111111111111111111011 aaaba
b11 aaabb
b10 aaabc

#220
0aaaaa

#225
1aaaaa
0aaaal
b100 aaaao
b0 aaaap
b1 aaaaq
b10 aaaar
b11111111111111111111111111111111 aaaas
b111 aaaat
1aaaau
0aaaav
b11 aaabc
b101 aaabd
b10 aaabe
b1 aaabf
1aaabi
1aaabj
1aaabm

#230
0aaaaa

#235
1aaaaa
b10 aaabc
b110 aaabd
b11 aaabe
b100 aaabf
b10 aaabg
b1 aaabk
0aaabm
1aaabn
0aaacc
r-1.518323337737011e+16 aaadn
r-1.518323337737011e+16 aaado
r-1.518323337737011e+16 aaadp
r-1.518323337737011e+16 aaadq
r-1.518323337737011e+16 aaadr
r-1.518323337737011e+16 aaads
r-1.518323337737011e+16 aaadt
r-1.518323337737011e+16 aaadu
r-1.518323337737011e+16 aaadv
r-1.518323337737011e+16 aaadw
r-1.518323337737011e+16 aaadx
r-1.518323337737011e+16 aaady
r-1.518323337737011e+16 aaadz
r-1.518323337737011e+16 aaaea
r-1.518323337737011e+16 aaaeb
r-1.518323337737011e+16 aaaec

#240
0aaaaa

#245
1aaaaa
b1 aaabc
b111 aaabd
b110 aaabe
b111 aaabf
b11111111111111111111111111111011 aaabg
b11 aaabh
b10 aaabk
1aaabl
0aaabn
1aaacc
0aaadk

#250
0aaaaa

#255
1aaaaa
1aaaac
b11 aaaad
b0 aaabc
0aaabi
0aaabj
0aaabl
1aaadk

#260
0aaaaa

#265
1aaaaa
0aaaac
1aaaae
b11 aaaaf
b1001 aaaai
b100 aaaaj
1aaaam
b0 aaaao
b11111111111111111111111111111111 aaaap
b0 aaaaq
b0 aaaar
b0 aaaat
0aaaau
b0 aaabd
b0 aaabe
b0 aaabf
b0 aaabg
b11111111111111111111111111111111 aaabh

#270
0aaaaa

#275
1aaaaa
b100 aaaaf
b101 aaaag
b111 aaaah
b100 aaaai
b101 aaaaj
0aaaam
1aaaan
b11 aaaao
b11 aaaap
b1001 aaaaq
b100 aaaar
b1 aaaat

#280
0aaaaa

#285
1aaaaa
b101 aaaaf
b10 aaaah
b1 aaaai
b100 aaaaj
b10 aaaat
0aaacv
b10 aaacx
b1 aaacy
b100 aaacz
b1 aaadj
1aaafs
1aaafv
1aaafy
b101 aaafz
b10 aaaga
b1 aaagb

#290
0aaaaa

#295
1aaaaa
b110 aaaaf
b110 aaaag
b11 aaaah
b100 aaaai
b10 aaaaj
1aaaal
b11 aaaat
1aaaav
b11 aaaax
b11 aaaay
b1001 aaaaz
b100 aaaba
b11111111111111111111111111111111 aaabb
1aaacv
b0 aaadj
0aaaed
b110 aaaee
b11 aaaef
b100 aaaeg
b10 aaaeh
r-3.036646675474022e+16 aaaej
r-3.036646675474022e+16 aaaek
r-3.036646675474022e+16 aaael
r-3.036646675474022e+16 aaaem
r-3.036646675474022e+16 aaaen
r-3.036646675474022e+16 aaaeo
r-3.036646675474022e+16 aaaep
r-3.036646675474022e+16 aaaeq
b1 aaaer
0aaafs
1aaaft
0aaafv
1aaafw
b110 aaafz
b11 aaaga
b100 aaagb
b10 aaagc
b101101 aaagq

#300
0aaaaa

#305
1aaaaa
b111 aaaaf
b111 aaaag
b110 aaaah
b111 aaaai
b11111111111111111111111111111011 aaaaj
b101 aaaao
b111 aaaap
b100 aaaaq
b101 aaaar
b101 aaaax
b111 aaaay
b100 aaaaz
b101 aaaba
b1 aaabc
1aaaed
b0 aaaer
0aaaft
0aaafw
0aaafy
b0 aaago

#310
0aaaaa
b0 aaago

#315
1aaaaa
b1000 aaaaf
b100 aaaag
b0 aaaah
b1 aaaai
b10 aaaaj
0aaaal
b10 aaaap
b1 aaaaq
b100 aaaar
0aaaav
b10 aaabc
b0 aaago

#320
0aaaaa
b0 aaago

#325
1aaaaa
b1001 aaaaf
b10 aaaag
b1 aaaah
b11 aaaai
b11 aaaaj
b100 aaaat
b11 aaabd
b11 aaabe
b1001 aaabf
b100 aaabg
1aaabi
1aaabj
b0 aaabk
1aaabo
b0 aaago

#330
0aaaaa
b0 aaago

#335
1aaaaa
b1010 aaaaf
b1 aaaag
b0 aaaah
b1001 aaaaj
b101 aaaat
b1 aaabc
b101 aaabd
b111 aaabe
b100 aaabf
b101 aaabg
b1 aaabk
1aaabm
0aaabo
0aaaes
b0 aaago

#340
0aaaaa
b0 aaago

#345
1aaaaa
b1011 aaaaf
b11 aaaag
b11 aaaah
b1000 aaaai
b100 aaaaj
b110 aaaat
b0 aaabc
0aaabi
0aaabj
0aaabm
0aaacc
b0 aaago

#350
0aaaaa
b0 aaago

#355
1aaaaa
b1100 aaaaf
b101 aaaaj
b111 aaaat
1aaacc
b0 aaago

#360
0aaaaa
b0 aaago

#365
1aaaaa
b1101 aaaaf
b110 aaaaj
b1000 aaaat
1aaaes
b0 aaago

#370
0aaaaa
b0 aaago

#375
1aaaaa
b1110 aaaaf
b111 aaaaj
b1001 aaaat
b0 aaago

#380
0aaaaa
b0 aaago

#385
1aaaaa
b1111 aaaaf
b1000 aaaaj
b1010 aaaat
b0 aaago

#390
0aaaaa
b0 aaago

#395
1aaaaa
0aaaae
0aaaan
0aaacv
b111 aaacx
b100 aaacy
b101 aaacz
b1 aaadj
0aaaet
b1 aaafq
1aaafs
1aaafv
1aaafy
b101 aaafz
b111 aaaga
b101 aaagc
b0 aaago

#400
0aaaaa
b0 aaago

#405
1aaaaa
1aaacv
b0 aaadj
0aaafv
1aaafx
b11 aaafz
b11 aaaga
b1001 aaagb
b100 aaagc
b0 aaago

#410
0aaaaa
b0 aaago

#415
1aaaaa
1aaaal
1aaaav
b10 aaaay
b1 aaaaz
b100 aaaba
1aaaet
b0 aaafq
0aaafs
0aaafx
0aaafy
b0 aaago
b0 aaagq

#420
0aaaaa
b0 aaago

#425
1aaaaa
b110 aaaao
b11 aaaap
b100 aaaaq
b10 aaaar
b1001 aaaat
b110 aaaax
b11 aaaay
b100 aaaaz
b10 aaaba
b1 aaabc
b0 aaago

#430
0aaaaa
b0 aaago

#435
1aaaaa
b111 aaaao
b110 aaaap
b111 aaaaq
b11111111111111111111111111111011 aaaar
b11 aaaas
b1000 aaaat
b111 aaaax
b110 aaaay
b111 aaaaz
b11111111111111111111111111111011 aaaba
b11 aaabb
b10 aaabc
b0 aaago

#440
0aaaaa
b0 aaago

#445
1aaaaa
0aaaal
b100 aaaao
b0 aaaap
b1 aaaaq
b10 aaaar
b11111111111111111111111111111111 aaaas
b111 aaaat
1aaaau
0aaaav
b11 aaabc
b10 aaabe
b1 aaabf
b100 aaabg
1aaabi
1aaabj
b0 aaabk
1aaabm
b0 aaago

#450
0aaaaa
b0 aaago

#455
1aaaaa
b10 aaabc
b110 aaabd
b11 aaabe
b100 aaabf
b10 aaabg
b1 aaabk
0aaabm
1aaabn
0aaacc
b0 aaago

#460
0aaaaa
b0 aaago

#465
1aaaaa
b1 aaabc
b111 aaabd
b110 aaabe
b111 aaabf
b11111111111111111111111111111011 aaabg
b11 aaabh
b10 aaabk
1aaabl
0aaabn
1aaacc
0aaadk
b0 aaago

#470
0aaaaa
b0 aaago

#475
1aaaaa
1aaaac
b0 aaabc
0aaabi
0aaabj
0aaabl
1aaadk
b0 aaago

#480
0aaaaa
b0 aaago

#485
1aaaaa
0aaaac
1aaaae
b11 aaaaf
b1001 aaaai
b100 aaaaj
1aaaam
b0 aaaao
b11111111111111111111111111111111 aaaap
b0 aaaaq
b0 aaaar
b0 aaaat
0aaaau
b0 aaabd
b0 aaabe
b0 aaabf
b0 aaabg
b11111111111111111111111111111111 aaabh
b0 aaago

#490
0aaaaa
b0 aaago

#495
1aaaaa
b100 aaaaf
b101 aaaag
b111 aaaah
b100 aaaai
b101 aaaaj
0aaaam
1aaaan
b11 aaaao
b11 aaaap
b1001 aaaaq
b100 aaaar
b1 aaaat
b0 aaago

#500
0aaaaa
b0 aaago

#505
1aaaaa
b101 aaaaf
b10 aaaah
b1 aaaai
b100 aaaaj
b10 aaaat
0aaacv
b10 aaacx
b1 aaacy
b100 aaacz
b1 aaadj
1aaafs
1aaafv
1aaafy
b101 aaafz
b10 aaaga
b1 aaagb
b0 aaago

#510
0aaaaa
b0 aaago

#515
1aaaaa
b110 aaaaf
b110 aaaag
b11 aaaah
b100 aaaai
b10 aaaaj
1aaaal
b11 aaaat
1aaaav
b11 aaaax
b11 aaaay
b1001 aaaaz
b100 aaaba
b11111111111111111111111111111111 aaabb
1aaacv
b0 aaadj
0aaaed
b1 aaaer
0aaafs
1aaaft
0aaafv
1aaafw
b110 aaafz
b11 aaaga
b100 aaagb
b10 aaagc
b0 aaago
b101101 aaagq

#520
0aaaaa
b0 aaago

#525
1aaaaa
b111 aaaaf
b111 aaaag
b110 aaaah
b111 aaaai
b11111111111111111111111111111011 aaaaj
b101 aaaao
b111 aaaap
b100 aaaaq
b101 aaaar
b101 aaaax
b111 aaaay
b100 aaaaz
b101 aaaba
b1 aaabc
1aaaed
b0 aaaer
0aaaft
0aaafw
0aaafy
b0 aaago

#530
0aaaaa
b0 aaago

#535
1aaaaa
b1000 aaaaf
b100 aaaag
b0 aaaah
b1 aaaai
b10 aaaaj
0aaaal
b10 aaaap
b1 aaaaq
b100 aaaar
0aaaav
b10 aaabc
b0 aaago

#540
0aaaaa
b0 aaago

#545
1aaaaa
b1001 aaaaf
b10 aaaag
b1 aaaah
b11 aaaai
b11 aaaaj
b100 aaaat
b11 aaabd
b11 aaabe
b1001 aaabf
b100 aaabg
1aaabi
1aaabj
b0 aaabk
1aaabo
b0 aaago

#550
0aaaaa
b0 aaago

#555
1aaaaa
b1010 aaaaf
b1 aaaag
b0 aaaah
b1001 aaaaj
b101 aaaat
b1 aaabc
b101 aaabd
b111 aaabe
b100 aaabf
b101 aaabg
b1 aaabk
1aaabm
0aaabo
0aaaes
b0 aaago

#560
0aaaaa
b0 aaago

#565
1aaaaa
b1011 aaaaf
b11 aaaag
b11 aaaah
b1000 aaaai
b100 aaaaj
b110 aaaat
b0 aaabc
0aaabi
0aaabj
0aaabm
0aaacc
b0 aaago

#570
0aaaaa
b0 aaago

#575
1aaaaa
b1100 aaaaf
b101 aaaaj
b111 aaaat
1aaacc
b0 aaago

#580
0aaaaa
b0 aaago

#585
1aaaaa
b1101 aaaaf
b110 aaaaj
b1000 aaaat
1aaaes
b0 aaago

#590
0aaaaa
b0 aaago

#595
1aaaaa
b1110 aaaaf
b111 aaaaj
b1001 aaaat
b0 aaago

#600
0aaaaa
b0 aaago

#605
1aaaaa
b1111 aaaaf
b1000 aaaaj
b1010 aaaat
b0 aaago

#610
0aaaaa
b0 aaago

