sc-code/sm/BASE_wave_warp2.vcd
$date
     May 31, 2023       00:29:28
$end

$version
 SystemC 2.3.4-Accellera --- May 20 2023 00:37:43
$end

$timescale
     1 ns
$end

$scope module SystemC $end
$var wire    1  aaabg  Clk       $end
$var wire    1  aaabh  Rst_n       $end
$var wire    1  aaabi  jump       $end
$var wire   32  aaabj  jump_addr [31:0]  $end
$var wire    1  aaabk  bramch_sig       $end
$var wire    1  aaabl  fetch_valid       $end
$var wire    1  aaabm  fetch_valid2       $end
$var wire   32  aaabn  pc [31:0]  $end
$var wire    1  aaace  dispatch_warp_valid       $end
$var wire    1  aaacf  ibuf_empty       $end
$var wire    1  aaacg  ibuf_swallow       $end
$var wire   32  aaacp  ififo_elem_num [31:0]  $end
$var wire    1  aaacq  wait_bran       $end
$var wire    1  aaacr  can_dispatch       $end
$var wire    1  aaacs  opc_full       $end
$var wire   32  aaact  last_dispatch_warpid [31:0]  $end
$var wire   32  aaadc  issueins_warpid [31:0]  $end
$var wire    1  aaadd  dispatch_valid       $end
$var wire    1  aaade  dispatch_ready       $end
$var wire   32  aaadf  opcfifo_elem_num [31:0]  $end
$var wire   32  aaado  emitins_warpid [31:0]  $end
$var wire    1  aaadp  doemit       $end
$var wire    1  aaadq  findemit       $end
$var wire   32  aaadr  emit_idx [31:0]  $end
$var wire    1  aaads  emito_salu       $end
$var wire    1  aaadt  emito_valu       $end
$var wire    1  aaadu  emito_vfpu       $end
$var wire    1  aaadv  emito_lsu       $end
$var wire    1  aaadw  salu_ready       $end
$var wire    1  aaadx  salufifo_empty       $end
$var wire   32  aaaes  salufifo_elem_num [31:0]  $end
$var wire    1  aaaet  valu_ready       $end
$var wire    1  aaaeu  valuto_simtstk       $end
$var wire    8  aaaev  branch_elsemask [7:0]  $end
$var wire   32  aaaew  branch_elsepc [31:0]  $end
$var wire   32  aaaff  vbranchins_warpid [31:0]  $end
$var wire    1  aaafg  valufifo_empty       $end
$var wire   32  aaafy  valufifo_elem_num [31:0]  $end
$var wire    1  aaafz  emito_simtstk       $end
$var wire    1  aaaga  simtstk_jump       $end
$var wire   32  aaagb  simtstk_jumpaddr [31:0]  $end
$var wire    8  aaagc  current_mask [7:0]  $end
$var wire    1  aaagd  vbran_sig       $end
$var wire    1  aaage  vfpu_ready       $end
$var wire    1  aaagf  vfpufifo_empty       $end
$var wire   32  aaagx  vfpufifo_elem_num [31:0]  $end
$var wire    1  aaagy  lsu_ready       $end
$var wire    1  aaagz  lsufifo_empty       $end
$var wire   32  aaaia  lsufifo_elem_num [31:0]  $end
$var wire    1  aaaib  write_s       $end
$var wire    1  aaaic  write_v       $end
$var wire    1  aaaid  write_f       $end
$var wire    1  aaaie  execpop_salu       $end
$var wire    1  aaaif  execpop_valu       $end
$var wire    1  aaaig  execpop_vfpu       $end
$var wire    1  aaaih  execpop_lsu       $end
$var wire    1  aaaii  wb_ena       $end
$var wire   32  aaair  wb_warpid [31:0]  $end
$var wire   32  aaajy  v_regfile(0)(0) [31:0]  $end
$var wire   32  aaajz  v_regfile(1)(0) [31:0]  $end
$var wire   32  aaaka  v_regfile(2)(0) [31:0]  $end
$var wire   32  aaakb  v_regfile(3)(0) [31:0]  $end
$var wire   32  aaakc  v_regfile(4)(0) [31:0]  $end
$var wire   32  aaakd  v_regfile(5)(0) [31:0]  $end
$var wire   32  aaake  v_regfile(6)(0) [31:0]  $end
$var wire   32  aaakf  v_regfile(7)(0) [31:0]  $end
$scope module decode_ins $end
$var wire   32  aaabw  ins_bit [31:0]  $end
$var wire   32  aaabx  op [31:0]  $end
$var wire   32  aaaby  s1 [31:0]  $end
$var wire   32  aaabz  s2 [31:0]  $end
$var wire   32  aaaca  s3 [31:0]  $end
$var wire   32  aaacb  d [31:0]  $end
$var wire    8  aaacc  mask [7:0]  $end
$var wire   32  aaacd  currentpc [31:0]  $end
$upscope $end
$scope module emit_ins $end
$var wire   32  aaadg  ins_bit [31:0]  $end
$var wire   32  aaadh  op [31:0]  $end
$var wire   32  aaadi  s1 [31:0]  $end
$var wire   32  aaadj  s2 [31:0]  $end
$var wire   32  aaadk  s3 [31:0]  $end
$var wire   32  aaadl  d [31:0]  $end
$var wire    8  aaadm  mask [7:0]  $end
$var wire   32  aaadn  currentpc [31:0]  $end
$upscope $end
$scope module external_mem $end
$var wire   32  aaakg  data(0) [31:0]  $end
$upscope $end
$scope module fetch_ins $end
$var wire   32  aaabo  ins_bit [31:0]  $end
$var wire   32  aaabp  op [31:0]  $end
$var wire   32  aaabq  s1 [31:0]  $end
$var wire   32  aaabr  s2 [31:0]  $end
$var wire   32  aaabs  s3 [31:0]  $end
$var wire   32  aaabt  d [31:0]  $end
$var wire    8  aaabu  mask [7:0]  $end
$var wire   32  aaabv  currentpc [31:0]  $end
$upscope $end
$scope module ibuftop_ins $end
$var wire   32  aaach  ins_bit [31:0]  $end
$var wire   32  aaaci  op [31:0]  $end
$var wire   32  aaacj  s1 [31:0]  $end
$var wire   32  aaack  s2 [31:0]  $end
$var wire   32  aaacl  s3 [31:0]  $end
$var wire   32  aaacm  d [31:0]  $end
$var wire    8  aaacn  mask [7:0]  $end
$var wire   32  aaaco  currentpc [31:0]  $end
$upscope $end
$scope module issue_ins $end
$var wire   32  aaacu  ins_bit [31:0]  $end
$var wire   32  aaacv  op [31:0]  $end
$var wire   32  aaacw  s1 [31:0]  $end
$var wire   32  aaacx  s2 [31:0]  $end
$var wire   32  aaacy  s3 [31:0]  $end
$var wire   32  aaacz  d [31:0]  $end
$var wire    8  aaada  mask [7:0]  $end
$var wire   32  aaadb  currentpc [31:0]  $end
$upscope $end
$scope module lsutop_dat $end
$var wire   32  aaahi  rds1_data [31:0]  $end
$var wire   32  aaahj  rdv1_data(0) [31:0]  $end
$var wire   32  aaahk  rdv1_data(1) [31:0]  $end
$var wire   32  aaahl  rdv1_data(2) [31:0]  $end
$var wire   32  aaahm  rdv1_data(3) [31:0]  $end
$var wire   32  aaahn  rdv1_data(4) [31:0]  $end
$var wire   32  aaaho  rdv1_data(5) [31:0]  $end
$var wire   32  aaahp  rdv1_data(6) [31:0]  $end
$var wire   32  aaahq  rdv1_data(7) [31:0]  $end
$var real    1  aaahr  rdf1_data(0)       $end
$var real    1  aaahs  rdf1_data(1)       $end
$var real    1  aaaht  rdf1_data(2)       $end
$var real    1  aaahu  rdf1_data(3)       $end
$var real    1  aaahv  rdf1_data(4)       $end
$var real    1  aaahw  rdf1_data(5)       $end
$var real    1  aaahx  rdf1_data(6)       $end
$var real    1  aaahy  rdf1_data(7)       $end
$var wire   32  aaahz  warp_id [31:0]  $end
$scope module ins $end
$var wire   32  aaaha  ins_bit [31:0]  $end
$var wire   32  aaahb  op [31:0]  $end
$var wire   32  aaahc  s1 [31:0]  $end
$var wire   32  aaahd  s2 [31:0]  $end
$var wire   32  aaahe  s3 [31:0]  $end
$var wire   32  aaahf  d [31:0]  $end
$var wire    8  aaahg  mask [7:0]  $end
$var wire   32  aaahh  currentpc [31:0]  $end
$upscope $end
$upscope $end
$scope module s_regfile $end
$var wire   32  aaais  data(0) [31:0]  $end
$var wire   32  aaait  data(1) [31:0]  $end
$var wire   32  aaaiu  data(2) [31:0]  $end
$var wire   32  aaaiv  data(3) [31:0]  $end
$var wire   32  aaaiw  data(4) [31:0]  $end
$var wire   32  aaaix  data(5) [31:0]  $end
$var wire   32  aaaiy  data(6) [31:0]  $end
$var wire   32  aaaiz  data(7) [31:0]  $end
$var wire   32  aaaja  data(8) [31:0]  $end
$var wire   32  aaajb  data(9) [31:0]  $end
$var wire   32  aaajc  data(10) [31:0]  $end
$var wire   32  aaajd  data(11) [31:0]  $end
$var wire   32  aaaje  data(12) [31:0]  $end
$var wire   32  aaajf  data(13) [31:0]  $end
$var wire   32  aaajg  data(14) [31:0]  $end
$var wire   32  aaajh  data(15) [31:0]  $end
$var wire   32  aaaji  data(16) [31:0]  $end
$var wire   32  aaajj  data(17) [31:0]  $end
$var wire   32  aaajk  data(18) [31:0]  $end
$var wire   32  aaajl  data(19) [31:0]  $end
$var wire   32  aaajm  data(20) [31:0]  $end
$var wire   32  aaajn  data(21) [31:0]  $end
$var wire   32  aaajo  data(22) [31:0]  $end
$var wire   32  aaajp  data(23) [31:0]  $end
$var wire   32  aaajq  data(24) [31:0]  $end
$var wire   32  aaajr  data(25) [31:0]  $end
$var wire   32  aaajs  data(26) [31:0]  $end
$var wire   32  aaajt  data(27) [31:0]  $end
$var wire   32  aaaju  data(28) [31:0]  $end
$var wire   32  aaajv  data(29) [31:0]  $end
$var wire   32  aaajw  data(30) [31:0]  $end
$var wire   32  aaajx  data(31) [31:0]  $end
$upscope $end
$scope module salutmp2 $end
$var wire   32  aaaeg  warp_id [31:0]  $end
$var wire   32  aaaeh  data [31:0]  $end
$scope module ins $end
$var wire   32  aaady  ins_bit [31:0]  $end
$var wire   32  aaadz  op [31:0]  $end
$var wire   32  aaaea  s1 [31:0]  $end
$var wire   32  aaaeb  s2 [31:0]  $end
$var wire   32  aaaec  s3 [31:0]  $end
$var wire   32  aaaed  d [31:0]  $end
$var wire    8  aaaee  mask [7:0]  $end
$var wire   32  aaaef  currentpc [31:0]  $end
$upscope $end
$upscope $end
$scope module salutop_dat $end
$var wire   32  aaaeq  warp_id [31:0]  $end
$var wire   32  aaaer  data [31:0]  $end
$scope module ins $end
$var wire   32  aaaei  ins_bit [31:0]  $end
$var wire   32  aaaej  op [31:0]  $end
$var wire   32  aaaek  s1 [31:0]  $end
$var wire   32  aaael  s2 [31:0]  $end
$var wire   32  aaaem  s3 [31:0]  $end
$var wire   32  aaaen  d [31:0]  $end
$var wire    8  aaaeo  mask [7:0]  $end
$var wire   32  aaaep  currentpc [31:0]  $end
$upscope $end
$upscope $end
$scope module test_CSR $end
$var wire   32  aaaaa  data(0) [31:0]  $end
$var wire   32  aaaab  data(1) [31:0]  $end
$var wire   32  aaaac  data(2) [31:0]  $end
$var wire   32  aaaad  data(3) [31:0]  $end
$var wire   32  aaaae  data(4) [31:0]  $end
$var wire   32  aaaaf  data(5) [31:0]  $end
$var wire   32  aaaag  data(6) [31:0]  $end
$var wire   32  aaaah  data(7) [31:0]  $end
$var wire   32  aaaai  data(8) [31:0]  $end
$var wire   32  aaaaj  data(9) [31:0]  $end
$var wire   32  aaaak  data(10) [31:0]  $end
$var wire   32  aaaal  data(11) [31:0]  $end
$var wire   32  aaaam  data(12) [31:0]  $end
$var wire   32  aaaan  data(13) [31:0]  $end
$var wire   32  aaaao  data(14) [31:0]  $end
$var wire   32  aaaap  data(15) [31:0]  $end
$var wire   32  aaaaq  data(16) [31:0]  $end
$var wire   32  aaaar  data(17) [31:0]  $end
$var wire   32  aaaas  data(18) [31:0]  $end
$var wire   32  aaaat  data(19) [31:0]  $end
$var wire   32  aaaau  data(20) [31:0]  $end
$var wire   32  aaaav  data(21) [31:0]  $end
$var wire   32  aaaaw  data(22) [31:0]  $end
$var wire   32  aaaax  data(23) [31:0]  $end
$var wire   32  aaaay  data(24) [31:0]  $end
$var wire   32  aaaaz  data(25) [31:0]  $end
$var wire   32  aaaba  data(26) [31:0]  $end
$var wire   32  aaabb  data(27) [31:0]  $end
$var wire   32  aaabc  data(28) [31:0]  $end
$var wire   32  aaabd  data(29) [31:0]  $end
$var wire   32  aaabe  data(30) [31:0]  $end
$var wire   32  aaabf  data(31) [31:0]  $end
$upscope $end
$scope module valutop_dat $end
$var wire   32  aaafp  rdv1_data(0) [31:0]  $end
$var wire   32  aaafq  rdv1_data(1) [31:0]  $end
$var wire   32  aaafr  rdv1_data(2) [31:0]  $end
$var wire   32  aaafs  rdv1_data(3) [31:0]  $end
$var wire   32  aaaft  rdv1_data(4) [31:0]  $end
$var wire   32  aaafu  rdv1_data(5) [31:0]  $end
$var wire   32  aaafv  rdv1_data(6) [31:0]  $end
$var wire   32  aaafw  rdv1_data(7) [31:0]  $end
$var wire   32  aaafx  warp_id [31:0]  $end
$scope module ins $end
$var wire   32  aaafh  ins_bit [31:0]  $end
$var wire   32  aaafi  op [31:0]  $end
$var wire   32  aaafj  s1 [31:0]  $end
$var wire   32  aaafk  s2 [31:0]  $end
$var wire   32  aaafl  s3 [31:0]  $end
$var wire   32  aaafm  d [31:0]  $end
$var wire    8  aaafn  mask [7:0]  $end
$var wire   32  aaafo  currentpc [31:0]  $end
$upscope $end
$upscope $end
$scope module vbranch_ins $end
$var wire   32  aaaex  ins_bit [31:0]  $end
$var wire   32  aaaey  op [31:0]  $end
$var wire   32  aaaez  s1 [31:0]  $end
$var wire   32  aaafa  s2 [31:0]  $end
$var wire   32  aaafb  s3 [31:0]  $end
$var wire   32  aaafc  d [31:0]  $end
$var wire    8  aaafd  mask [7:0]  $end
$var wire   32  aaafe  currentpc [31:0]  $end
$upscope $end
$scope module vfputop_dat $end
$var wire   32  aaago  rdf1_data(0) [31:0]  $end
$var wire   32  aaagp  rdf1_data(1) [31:0]  $end
$var wire   32  aaagq  rdf1_data(2) [31:0]  $end
$var wire   32  aaagr  rdf1_data(3) [31:0]  $end
$var wire   32  aaags  rdf1_data(4) [31:0]  $end
$var wire   32  aaagt  rdf1_data(5) [31:0]  $end
$var wire   32  aaagu  rdf1_data(6) [31:0]  $end
$var wire   32  aaagv  rdf1_data(7) [31:0]  $end
$var wire   32  aaagw  warp_id [31:0]  $end
$scope module ins $end
$var wire   32  aaagg  ins_bit [31:0]  $end
$var wire   32  aaagh  op [31:0]  $end
$var wire   32  aaagi  s1 [31:0]  $end
$var wire   32  aaagj  s2 [31:0]  $end
$var wire   32  aaagk  s3 [31:0]  $end
$var wire   32  aaagl  d [31:0]  $end
$var wire    8  aaagm  mask [7:0]  $end
$var wire   32  aaagn  currentpc [31:0]  $end
$upscope $end
$upscope $end
$scope module wb_ins $end
$var wire   32  aaaij  ins_bit [31:0]  $end
$var wire   32  aaaik  op [31:0]  $end
$var wire   32  aaail  s1 [31:0]  $end
$var wire   32  aaaim  s2 [31:0]  $end
$var wire   32  aaain  s3 [31:0]  $end
$var wire   32  aaaio  d [31:0]  $end
$var wire    8  aaaip  mask [7:0]  $end
$var wire   32  aaaiq  currentpc [31:0]  $end
$upscope $end
$upscope $end
$enddefinitions  $end

$comment
All initial values are dumped below at time 0 sec = 0 timescale units.
$end

$dumpvars
b0 aaaaa
b0 aaaab
b0 aaaac
b0 aaaad
b0 aaaae
b0 aaaaf
b0 aaaag
b0 aaaah
b0 aaaai
b0 aaaaj
b0 aaaak
b0 aaaal
b0 aaaam
b0 aaaan
b0 aaaao
b0 aaaap
b0 aaaaq
b0 aaaar
b0 aaaas
b0 aaaat
b0 aaaau
b0 aaaav
b0 aaaaw
b0 aaaax
b0 aaaay
b0 aaaaz
b0 aaaba
b0 aaabb
b0 aaabc
b0 aaabd
b0 aaabe
b0 aaabf
0aaabg
0aaabh
0aaabi
b0 aaabj
0aaabk
0aaabl
0aaabm
b0 aaabn
b0 aaabo
b0 aaabp
b11111111111111111111111111111111 aaabq
b11111111111111111111111111111111 aaabr
b11111111111111111111111111111111 aaabs
b11111111111111111111111111111111 aaabt
b0 aaabu
b0 aaabv
b0 aaabw
b0 aaabx
b11111111111111111111111111111111 aaaby
b11111111111111111111111111111111 aaabz
b11111111111111111111111111111111 aaaca
b11111111111111111111111111111111 aaacb
b0 aaacc
b101010101100111 aaacd
0aaace
0aaacf
0aaacg
b11111111111111111111111111111111 aaach
b0 aaaci
b0 aaacj
b0 aaack
b0 aaacl
b0 aaacm
b0 aaacn
b11001100110001000100011011001010 aaaco
b0 aaacp
0aaacq
0aaacr
0aaacs
b0 aaact
b11111111111111111111111111111111 aaacu
b0 aaacv
b0 aaacw
b0 aaacx
b0 aaacy
b0 aaacz
b0 aaada
b11001100110001000100011011001010 aaadb
b0 aaadc
0aaadd
0aaade
b0 aaadf
b11011011101011110111001011101000 aaadg
b111111100110001 aaadh
b11111111111111111111111111111111 aaadi
b11111111111111111111111111111111 aaadj
b11111111111111111111111111111111 aaadk
b11111111111111111111111111111111 aaadl
b0 aaadm
b101010101100111 aaadn
b0 aaado
0aaadp
0aaadq
b0 aaadr
0aaads
0aaadt
0aaadu
0aaadv
1aaadw
1aaadx
b0 aaady
b0 aaadz
b11111111111111111111111111111111 aaaea
b11111111111111111111111111111111 aaaeb
b11111111111111111111111111111111 aaaec
b11111111111111111111111111111111 aaaed
b0 aaaee
b0 aaaef
b0 aaaeg
b0 aaaeh
b0 aaaei
b0 aaaej
b11111111111111111111111111111111 aaaek
b11111111111111111111111111111111 aaael
b11111111111111111111111111111111 aaaem
b11111111111111111111111111111111 aaaen
b0 aaaeo
b0 aaaep
b0 aaaeq
b0 aaaer
b0 aaaes
1aaaet
0aaaeu
b0 aaaev
b0 aaaew
b10000100001110001010100010111 aaaex
b101010101100111 aaaey
b11111111111111111111111111111111 aaaez
b11111111111111111111111111111111 aaafa
b11111111111111111111111111111111 aaafb
b11111111111111111111111111111111 aaafc
b0 aaafd
b101010101100111 aaafe
b0 aaaff
1aaafg
b0 aaafh
b0 aaafi
b11111111111111111111111111111111 aaafj
b11111111111111111111111111111111 aaafk
b11111111111111111111111111111111 aaafl
b11111111111111111111111111111111 aaafm
b0 aaafn
b0 aaafo
b0 aaafp
b0 aaafq
b0 aaafr
b0 aaafs
b0 aaaft
b0 aaafu
b0 aaafv
b0 aaafw
b0 aaafx
b0 aaafy
0aaafz
0aaaga
b0 aaagb
b11111111 aaagc
0aaagd
1aaage
1aaagf
b0 aaagg
b0 aaagh
b11111111111111111111111111111111 aaagi
b11111111111111111111111111111111 aaagj
b11111111111111111111111111111111 aaagk
b11111111111111111111111111111111 aaagl
b0 aaagm
b0 aaagn
b0 aaago
b0 aaagp
b0 aaagq
b0 aaagr
b0 aaags
b0 aaagt
b0 aaagu
b0 aaagv
b0 aaagw
b0 aaagx
1aaagy
1aaagz
b0 aaaha
b0 aaahb
b11111111111111111111111111111111 aaahc
b11111111111111111111111111111111 aaahd
b11111111111111111111111111111111 aaahe
b11111111111111111111111111111111 aaahf
b0 aaahg
b0 aaahh
b0 aaahi
b0 aaahj
b0 aaahk
b0 aaahl
b0 aaahm
b0 aaahn
b0 aaaho
b0 aaahp
b0 aaahq
r0 aaahr
r0 aaahs
r0 aaaht
r0 aaahu
r0 aaahv
r0 aaahw
r0 aaahx
r0 aaahy
b0 aaahz
b0 aaaia
0aaaib
0aaaic
0aaaid
0aaaie
0aaaif
0aaaig
0aaaih
0aaaii
b11011011101011111110100100111000 aaaij
b111111100110001 aaaik
b11111111111111111111111111111111 aaail
b11111111111111111111111111111111 aaaim
b11111111111111111111111111111111 aaain
b11111111111111111111111111111111 aaaio
b0 aaaip
b101010101100111 aaaiq
b0 aaair
b0 aaais
b0 aaait
b0 aaaiu
b0 aaaiv
b0 aaaiw
b0 aaaix
b0 aaaiy
b0 aaaiz
b0 aaaja
b0 aaajb
b0 aaajc
b0 aaajd
b0 aaaje
b0 aaajf
b0 aaajg
b0 aaajh
b0 aaaji
b0 aaajj
b0 aaajk
b0 aaajl
b1011000 aaajm
b1011000 aaajn
b0 aaajo
b0 aaajp
b0 aaajq
b0 aaajr
b0 aaajs
b0 aaajt
b0 aaaju
b0 aaajv
b0 aaajw
b0 aaajx
b11110 aaajy
b11110 aaajz
b0 aaaka
b0 aaakb
b0 aaakc
b0 aaakd
b0 aaake
b0 aaakf
b0 aaakg
$end

#5
1aaabg

#10
0aaabg
1aaabh

#15
1aaabg

#20
0aaabg

#25
1aaabg

#30
0aaabg

#35
1aaabg
b1 aaact
b11000110010111 aaacu
b1110 aaacv
b11111111111111111111111111111111 aaacw
b11111111111111111111111111111111 aaacx
b11111111111111111111111111111111 aaacy
b11 aaacz
b11111111 aaada
b0 aaadb
1aaadd

#40
0aaabg

#45
1aaabg
0aaadd
b1 aaadf
b11000110010111 aaadg
b1110 aaadh
b11 aaadl
b11111111 aaadm
b0 aaadn
1aaadp
1aaadq
1aaads

#50
0aaabg

#55
1aaabg
b0 aaadf
0aaadp
0aaadq
0aaads
0aaadw

#60
0aaabg

#65
1aaabg
1aaadw
0aaadx
b11000110010111 aaady
b1110 aaadz
b11 aaaed
b11111111 aaaee
b11111111111111111111000000000000 aaaeh
b11000110010111 aaaei
b1110 aaaej
b11 aaaen
b11111111 aaaeo
b11111111111111111111000000000000 aaaer
b1 aaaes
1aaaib
1aaaie
1aaaii
b11000110010111 aaaij
b1110 aaaik
b11 aaaio
b11111111 aaaip
b0 aaaiq

#70
0aaabg

#75
1aaabg
b10000000000000011000000110010011 aaacu
b10 aaacv
b100 aaadb
1aaadd
1aaadx
b0 aaaes
0aaaib
0aaaie
0aaaii

#80
0aaabg

#85
1aaabg
b10000000000000111010010011 aaacu
b11101 aaacz
b1000 aaadb
b1 aaadf

#90
0aaabg

#95
1aaabg
0aaadd
b10 aaadf

