sc-code/sm/BASE_wave_warp0.vcd
$date
     Apr 10, 2023       00:01:32
$end

$version
 SystemC 2.3.4-Accellera --- Mar  1 2023 22:54:03
$end

$timescale
     1 ns
$end

$scope module SystemC $end
$var wire    1  aaaaa  Clk       $end
$var wire    1  aaaab  Rst_n       $end
$var wire    1  aaaac  jump       $end
$var wire   32  aaaad  jump_addr [31:0]  $end
$var wire    1  aaaae  bramch_sig       $end
$var wire    1  aaaaf  fetch_valid       $end
$var wire   32  aaaag  pc [31:0]  $end
$var wire    1  aaaam  dispatch_warp_valid       $end
$var wire    1  aaaan  ibuf_empty       $end
$var wire    1  aaaao  ibuf_swallow       $end
$var wire   32  aaaau  ififo_elem_num [31:0]  $end
$var wire    1  aaaav  wait_bran       $end
$var wire    1  aaaaw  can_dispatch       $end
$var wire    1  aaaax  opc_full       $end
$var wire   32  aaaay  last_dispatch_warpid [31:0]  $end
$var wire   32  aaabe  issueins_warpid [31:0]  $end
$var wire    1  aaabf  dispatch_valid       $end
$var wire    1  aaabg  dispatch_ready       $end
$var wire   32  aaabh  opcfifo_elem_num [31:0]  $end
$var wire   32  aaabn  emitins_warpid [31:0]  $end
$var wire    1  aaabo  doemit       $end
$var wire    1  aaabp  findemit       $end
$var wire   32  aaabq  emit_idx [31:0]  $end
$var wire    1  aaabr  emito_salu       $end
$var wire    1  aaabs  emito_valu       $end
$var wire    1  aaabt  emito_vfpu       $end
$var wire    1  aaabu  emito_lsu       $end
$var wire    1  aaabv  salu_ready       $end
$var wire    5  aaabw  rss1_addr [4:0]  $end
$var wire    5  aaabx  rss2_addr [4:0]  $end
$var wire   32  aaaby  rss1_data [31:0]  $end
$var wire   32  aaabz  rss2_data [31:0]  $end
$var wire    1  aaaca  salufifo_empty       $end
$var wire   32  aaacp  salufifo_elem_num [31:0]  $end
$var wire    1  aaacq  valu_ready       $end
$var wire    5  aaacr  rsv1_addr [4:0]  $end
$var wire    5  aaacs  rsv2_addr [4:0]  $end
$var wire    1  aaadj  valufifo_empty       $end
$var wire   32  aaady  valufifo_elem_num [31:0]  $end
$var wire    1  aaadz  vfpu_ready       $end
$var wire    5  aaaea  rsf1_addr [4:0]  $end
$var wire    5  aaaeb  rsf2_addr [4:0]  $end
$var wire    1  aaaes  vfpufifo_empty       $end
$var wire   32  aaafh  vfpufifo_elem_num [31:0]  $end
$var wire    1  aaafi  lsu_ready       $end
$var wire    1  aaafj  lsufifo_empty       $end
$var wire   32  aaagh  lsufifo_elem_num [31:0]  $end
$var wire    1  aaagi  write_s       $end
$var wire    1  aaagj  write_v       $end
$var wire    1  aaagk  write_f       $end
$var wire    1  aaagl  execpop_salu       $end
$var wire    1  aaagm  execpop_valu       $end
$var wire    1  aaagn  execpop_vfpu       $end
$var wire    1  aaago  execpop_lsu       $end
$var wire    1  aaagp  wb_ena       $end
$var wire   32  aaagv  wb_warpid [31:0]  $end
$var wire   32  aaaic  v_regfile(0)(0) [31:0]  $end
$var wire   32  aaaid  v_regfile(1)(0) [31:0]  $end
$var wire   32  aaaie  v_regfile(2)(0) [31:0]  $end
$var wire   32  aaaif  v_regfile(3)(0) [31:0]  $end
$var wire   32  aaaig  v_regfile(4)(0) [31:0]  $end
$var wire   32  aaaih  v_regfile(5)(0) [31:0]  $end
$var wire   32  aaaii  v_regfile(6)(0) [31:0]  $end
$var wire   32  aaaij  v_regfile(7)(0) [31:0]  $end
$scope module emit_ins $end
$var wire   32  aaabi  op [31:0]  $end
$var wire   32  aaabj  s1 [31:0]  $end
$var wire   32  aaabk  s2 [31:0]  $end
$var wire   32  aaabl  d [31:0]  $end
$var wire   32  aaabm  jump_addr [31:0]  $end
$upscope $end
$scope module external_mem $end
$var wire   32  aaaik  data(0) [31:0]  $end
$upscope $end
$scope module fetch_ins $end
$var wire   32  aaaah  op [31:0]  $end
$var wire   32  aaaai  s1 [31:0]  $end
$var wire   32  aaaaj  s2 [31:0]  $end
$var wire   32  aaaak  d [31:0]  $end
$var wire   32  aaaal  jump_addr [31:0]  $end
$upscope $end
$scope module ibuftop_ins $end
$var wire   32  aaaap  op [31:0]  $end
$var wire   32  aaaaq  s1 [31:0]  $end
$var wire   32  aaaar  s2 [31:0]  $end
$var wire   32  aaaas  d [31:0]  $end
$var wire   32  aaaat  jump_addr [31:0]  $end
$upscope $end
$scope module issue_ins $end
$var wire   32  aaaaz  op [31:0]  $end
$var wire   32  aaaba  s1 [31:0]  $end
$var wire   32  aaabb  s2 [31:0]  $end
$var wire   32  aaabc  d [31:0]  $end
$var wire   32  aaabd  jump_addr [31:0]  $end
$upscope $end
$scope module lsutop_dat $end
$var wire   32  aaafp  rds1_data [31:0]  $end
$var wire   32  aaafq  rdv1_data(0) [31:0]  $end
$var wire   32  aaafr  rdv1_data(1) [31:0]  $end
$var wire   32  aaafs  rdv1_data(2) [31:0]  $end
$var wire   32  aaaft  rdv1_data(3) [31:0]  $end
$var wire   32  aaafu  rdv1_data(4) [31:0]  $end
$var wire   32  aaafv  rdv1_data(5) [31:0]  $end
$var wire   32  aaafw  rdv1_data(6) [31:0]  $end
$var wire   32  aaafx  rdv1_data(7) [31:0]  $end
$var real    1  aaafy  rdf1_data(0)       $end
$var real    1  aaafz  rdf1_data(1)       $end
$var real    1  aaaga  rdf1_data(2)       $end
$var real    1  aaagb  rdf1_data(3)       $end
$var real    1  aaagc  rdf1_data(4)       $end
$var real    1  aaagd  rdf1_data(5)       $end
$var real    1  aaage  rdf1_data(6)       $end
$var real    1  aaagf  rdf1_data(7)       $end
$var wire   32  aaagg  warp_id [31:0]  $end
$scope module ins $end
$var wire   32  aaafk  op [31:0]  $end
$var wire   32  aaafl  s1 [31:0]  $end
$var wire   32  aaafm  s2 [31:0]  $end
$var wire   32  aaafn  d [31:0]  $end
$var wire   32  aaafo  jump_addr [31:0]  $end
$upscope $end
$upscope $end
$scope module rsf1_data $end
$var real    1  aaaec  data(0)       $end
$var real    1  aaaed  data(1)       $end
$var real    1  aaaee  data(2)       $end
$var real    1  aaaef  data(3)       $end
$var real    1  aaaeg  data(4)       $end
$var real    1  aaaeh  data(5)       $end
$var real    1  aaaei  data(6)       $end
$var real    1  aaaej  data(7)       $end
$upscope $end
$scope module rsf2_data $end
$var real    1  aaaek  data(0)       $end
$var real    1  aaael  data(1)       $end
$var real    1  aaaem  data(2)       $end
$var real    1  aaaen  data(3)       $end
$var real    1  aaaeo  data(4)       $end
$var real    1  aaaep  data(5)       $end
$var real    1  aaaeq  data(6)       $end
$var real    1  aaaer  data(7)       $end
$upscope $end
$scope module rsv1_data $end
$var wire   32  aaact  data(0) [31:0]  $end
$var wire   32  aaacu  data(1) [31:0]  $end
$var wire   32  aaacv  data(2) [31:0]  $end
$var wire   32  aaacw  data(3) [31:0]  $end
$var wire   32  aaacx  data(4) [31:0]  $end
$var wire   32  aaacy  data(5) [31:0]  $end
$var wire   32  aaacz  data(6) [31:0]  $end
$var wire   32  aaada  data(7) [31:0]  $end
$upscope $end
$scope module rsv2_data $end
$var wire   32  aaadb  data(0) [31:0]  $end
$var wire   32  aaadc  data(1) [31:0]  $end
$var wire   32  aaadd  data(2) [31:0]  $end
$var wire   32  aaade  data(3) [31:0]  $end
$var wire   32  aaadf  data(4) [31:0]  $end
$var wire   32  aaadg  data(5) [31:0]  $end
$var wire   32  aaadh  data(6) [31:0]  $end
$var wire   32  aaadi  data(7) [31:0]  $end
$upscope $end
$scope module s_regfile $end
$var wire   32  aaagw  data(0) [31:0]  $end
$var wire   32  aaagx  data(1) [31:0]  $end
$var wire   32  aaagy  data(2) [31:0]  $end
$var wire   32  aaagz  data(3) [31:0]  $end
$var wire   32  aaaha  data(4) [31:0]  $end
$var wire   32  aaahb  data(5) [31:0]  $end
$var wire   32  aaahc  data(6) [31:0]  $end
$var wire   32  aaahd  data(7) [31:0]  $end
$var wire   32  aaahe  data(8) [31:0]  $end
$var wire   32  aaahf  data(9) [31:0]  $end
$var wire   32  aaahg  data(10) [31:0]  $end
$var wire   32  aaahh  data(11) [31:0]  $end
$var wire   32  aaahi  data(12) [31:0]  $end
$var wire   32  aaahj  data(13) [31:0]  $end
$var wire   32  aaahk  data(14) [31:0]  $end
$var wire   32  aaahl  data(15) [31:0]  $end
$var wire   32  aaahm  data(16) [31:0]  $end
$var wire   32  aaahn  data(17) [31:0]  $end
$var wire   32  aaaho  data(18) [31:0]  $end
$var wire   32  aaahp  data(19) [31:0]  $end
$var wire   32  aaahq  data(20) [31:0]  $end
$var wire   32  aaahr  data(21) [31:0]  $end
$var wire   32  aaahs  data(22) [31:0]  $end
$var wire   32  aaaht  data(23) [31:0]  $end
$var wire   32  aaahu  data(24) [31:0]  $end
$var wire   32  aaahv  data(25) [31:0]  $end
$var wire   32  aaahw  data(26) [31:0]  $end
$var wire   32  aaahx  data(27) [31:0]  $end
$var wire   32  aaahy  data(28) [31:0]  $end
$var wire   32  aaahz  data(29) [31:0]  $end
$var wire   32  aaaia  data(30) [31:0]  $end
$var wire   32  aaaib  data(31) [31:0]  $end
$upscope $end
$scope module salutmp2 $end
$var wire   32  aaacg  warp_id [31:0]  $end
$var wire   32  aaach  data [31:0]  $end
$scope module ins $end
$var wire   32  aaacb  op [31:0]  $end
$var wire   32  aaacc  s1 [31:0]  $end
$var wire   32  aaacd  s2 [31:0]  $end
$var wire   32  aaace  d [31:0]  $end
$var wire   32  aaacf  jump_addr [31:0]  $end
$upscope $end
$upscope $end
$scope module salutop_dat $end
$var wire   32  aaacn  warp_id [31:0]  $end
$var wire   32  aaaco  data [31:0]  $end
$scope module ins $end
$var wire   32  aaaci  op [31:0]  $end
$var wire   32  aaacj  s1 [31:0]  $end
$var wire   32  aaack  s2 [31:0]  $end
$var wire   32  aaacl  d [31:0]  $end
$var wire   32  aaacm  jump_addr [31:0]  $end
$upscope $end
$upscope $end
$scope module valutop_dat $end
$var wire   32  aaadp  rdv1_data(0) [31:0]  $end
$var wire   32  aaadq  rdv1_data(1) [31:0]  $end
$var wire   32  aaadr  rdv1_data(2) [31:0]  $end
$var wire   32  aaads  rdv1_data(3) [31:0]  $end
$var wire   32  aaadt  rdv1_data(4) [31:0]  $end
$var wire   32  aaadu  rdv1_data(5) [31:0]  $end
$var wire   32  aaadv  rdv1_data(6) [31:0]  $end
$var wire   32  aaadw  rdv1_data(7) [31:0]  $end
$var wire   32  aaadx  warp_id [31:0]  $end
$scope module ins $end
$var wire   32  aaadk  op [31:0]  $end
$var wire   32  aaadl  s1 [31:0]  $end
$var wire   32  aaadm  s2 [31:0]  $end
$var wire   32  aaadn  d [31:0]  $end
$var wire   32  aaado  jump_addr [31:0]  $end
$upscope $end
$upscope $end
$scope module vfputop_dat $end
$var real    1  aaaey  rdf1_data(0)       $end
$var real    1  aaaez  rdf1_data(1)       $end
$var real    1  aaafa  rdf1_data(2)       $end
$var real    1  aaafb  rdf1_data(3)       $end
$var real    1  aaafc  rdf1_data(4)       $end
$var real    1  aaafd  rdf1_data(5)       $end
$var real    1  aaafe  rdf1_data(6)       $end
$var real    1  aaaff  rdf1_data(7)       $end
$var wire   32  aaafg  warp_id [31:0]  $end
$scope module ins $end
$var wire   32  aaaet  op [31:0]  $end
$var wire   32  aaaeu  s1 [31:0]  $end
$var wire   32  aaaev  s2 [31:0]  $end
$var wire   32  aaaew  d [31:0]  $end
$var wire   32  aaaex  jump_addr [31:0]  $end
$upscope $end
$upscope $end
$scope module wb_ins $end
$var wire   32  aaagq  op [31:0]  $end
$var wire   32  aaagr  s1 [31:0]  $end
$var wire   32  aaags  s2 [31:0]  $end
$var wire   32  aaagt  d [31:0]  $end
$var wire   32  aaagu  jump_addr [31:0]  $end
$upscope $end
$upscope $end
$enddefinitions  $end

$comment
All initial values are dumped below at time 0 sec = 0 timescale units.
$end

$dumpvars
0aaaaa
0aaaab
0aaaac
b0 aaaad
0aaaae
0aaaaf
b0 aaaag
b1000 aaaah
b0 aaaai
b10001110100 aaaaj
b1 aaaak
b11111111111111111111111111111111 aaaal
0aaaam
0aaaan
0aaaao
b0 aaaap
b0 aaaaq
b0 aaaar
b0 aaaas
b11111111111111111111111111111111 aaaat
b0 aaaau
0aaaav
0aaaaw
0aaaax
b0 aaaay
b0 aaaaz
b0 aaaba
b0 aaabb
b0 aaabc
b11111111111111111111111111111111 aaabd
b0 aaabe
0aaabf
0aaabg
b0 aaabh
b111111111111100 aaabi
b11111111111111111111111111111111 aaabj
b11111111111111111111111111111111 aaabk
b11111111111111111111111111111111 aaabl
b11111111111111111111111111111111 aaabm
b0 aaabn
0aaabo
0aaabp
b0 aaabq
0aaabr
0aaabs
0aaabt
0aaabu
1aaabv
b0 aaabw
b0 aaabx
b0 aaaby
b0 aaabz
1aaaca
b0 aaacb
b11111111111111111111111111111111 aaacc
b11111111111111111111111111111111 aaacd
b11111111111111111111111111111111 aaace
b11111111111111111111111111111111 aaacf
b0 aaacg
b0 aaach
b0 aaaci
b11111111111111111111111111111111 aaacj
b11111111111111111111111111111111 aaack
b11111111111111111111111111111111 aaacl
b11111111111111111111111111111111 aaacm
b0 aaacn
b0 aaaco
b0 aaacp
1aaacq
b0 aaacr
b0 aaacs
b0 aaact
b0 aaacu
b0 aaacv
b0 aaacw
b0 aaacx
b0 aaacy
b0 aaacz
b0 aaada
b0 aaadb
b0 aaadc
b0 aaadd
b0 aaade
b0 aaadf
b0 aaadg
b0 aaadh
b0 aaadi
1aaadj
b0 aaadk
b11111111111111111111111111111111 aaadl
b11111111111111111111111111111111 aaadm
b11111111111111111111111111111111 aaadn
b11111111111111111111111111111111 aaado
b0 aaadp
b0 aaadq
b0 aaadr
b0 aaads
b0 aaadt
b0 aaadu
b0 aaadv
b0 aaadw
b0 aaadx
b0 aaady
1aaadz
b0 aaaea
b0 aaaeb
r0 aaaec
r0 aaaed
r0 aaaee
r0 aaaef
r0 aaaeg
r0 aaaeh
r0 aaaei
r0 aaaej
r0 aaaek
r0 aaael
r0 aaaem
r0 aaaen
r0 aaaeo
r0 aaaep
r0 aaaeq
r0 aaaer
1aaaes
b0 aaaet
b11111111111111111111111111111111 aaaeu
b11111111111111111111111111111111 aaaev
b11111111111111111111111111111111 aaaew
b11111111111111111111111111111111 aaaex
r0 aaaey
r0 aaaez
r0 aaafa
r0 aaafb
r0 aaafc
r0 aaafd
r0 aaafe
r0 aaaff
b0 aaafg
b0 aaafh
1aaafi
1aaafj
b0 aaafk
b11111111111111111111111111111111 aaafl
b11111111111111111111111111111111 aaafm
b11111111111111111111111111111111 aaafn
b11111111111111111111111111111111 aaafo
b0 aaafp
b0 aaafq
b0 aaafr
b0 aaafs
b0 aaaft
b0 aaafu
b0 aaafv
b0 aaafw
b0 aaafx
r0 aaafy
r0 aaafz
r0 aaaga
r0 aaagb
r0 aaagc
r0 aaagd
r0 aaage
r0 aaagf
b0 aaagg
b0 aaagh
0aaagi
0aaagj
0aaagk
0aaagl
0aaagm
0aaagn
0aaago
0aaagp
b111111111111100 aaagq
b11111111111111111111111111111111 aaagr
b11111111111111111111111111111111 aaags
b11111111111111111111111111111111 aaagt
b11111111111111111111111111111111 aaagu
b0 aaagv
b0 aaagw
b0 aaagx
b0 aaagy
b0 aaagz
b0 aaaha
b0 aaahb
b0 aaahc
b0 aaahd
b0 aaahe
b0 aaahf
b0 aaahg
b0 aaahh
b0 aaahi
b0 aaahj
b0 aaahk
b0 aaahl
b0 aaahm
b0 aaahn
b0 aaaho
b0 aaahp
b0 aaahq
b0 aaahr
b0 aaahs
b0 aaaht
b0 aaahu
b0 aaahv
b0 aaahw
b0 aaahx
b0 aaahy
b0 aaahz
b0 aaaia
b0 aaaib
b0 aaaic
b0 aaaid
b0 aaaie
b0 aaaif
b0 aaaig
b0 aaaih
b0 aaaii
b0 aaaij
b1010010111010 aaaik
$end

#5
1aaaaa
b11111111111111111111111111111111 aaaag
b0 aaaah
b0 aaaaj
b0 aaaak
1aaaan
b11111111111111111111111111111111 aaaas
1aaabg

#10
0aaaaa
1aaaab

#15
1aaaaa
1aaaaf
b0 aaaag
b1000 aaaah
b10001110100 aaaaj
b1 aaaak

#20
0aaaaa

#25
1aaaaa
b1 aaaag
b10 aaaah
b1 aaaai
b1 aaaaj
1aaaam
0aaaan
1aaaao
b1000 aaaap
b10001110100 aaaar
b1 aaaas
b1 aaaau
1aaaaw
b1 aaaay
b1000 aaaaz
b10001110100 aaabb
b1 aaabc
1aaabf

#30
0aaaaa

#35
1aaaaa
b10 aaaag
0aaaam
b10 aaaap
b1 aaaaq
b1 aaaar
0aaaaw
b10 aaaay
b1 aaabe
b1 aaabh

#40
0aaaaa

#45
1aaaaa
b11 aaaag
b1000 aaaah
b0 aaaai
b10011000011 aaaaj
b10 aaaak
b10 aaaau
b11 aaaay
b10 aaabe
b10 aaabh

#50
0aaaaa

#55
1aaaaa
b100 aaaag
b10 aaaah
b10 aaaai
b10 aaaaj
b11 aaaau
b100 aaaay
b11 aaabe
b11 aaabh
b1000 aaabi
b0 aaabj
b10001110100 aaabk
b1 aaabl
1aaabo
1aaabp
1aaabr

#60
0aaaaa

#65
1aaaaa
b101 aaaag
b100 aaaau
0aaabf
b1 aaabn
0aaabo
0aaabp
0aaabr
0aaabv

#70
0aaaaa

#75
1aaaaa
b110 aaaag
b1000 aaaah
b0 aaaai
b10010000101 aaaaj
b11 aaaak
b101 aaaau
1aaabo
1aaabp
b1 aaabq
1aaabr
1aaabv
0aaaca
b1000 aaacb
b0 aaacc
b10001110100 aaacd
b1 aaace
b10001110100 aaach
b1000 aaaci
b0 aaacj
b10001110100 aaack
b1 aaacl
b10001110100 aaaco
b1 aaacp
1aaagi
1aaagl
1aaagp
b1000 aaagq
b0 aaagr
b10001110100 aaags
b1 aaagt

#80
0aaaaa

#85
1aaaaa
b111 aaaag
b10 aaaah
b11 aaaai
b11 aaaaj
1aaaam
b110 aaaau
1aaaaw
b1 aaaay
b10 aaaaz
b1 aaaba
b1 aaabb
b0 aaabe
1aaabf
b10 aaabh
b11 aaabn
0aaabo
0aaabp
0aaabr
0aaabv
1aaaca
b0 aaacp
0aaagi
0aaagl
0aaagp
b10001110100 aaagx

#90
0aaaaa

#95
1aaaaa
b1000 aaaag
0aaaam
0aaaaw
0aaabf
b11 aaabh
b10 aaabn
1aaabo
1aaabp
b10 aaabq
1aaabr
1aaabv
0aaaca
b1 aaacg
b1 aaacn
b1 aaacp
1aaagi
1aaagl
1aaagp
b1 aaagv

#100
0aaaaa

#105
1aaaaa
b1001 aaaag
b1000 aaaah
b0 aaaai
b10011000111 aaaaj
b100 aaaak
b111 aaaau
b10 aaaay
b1 aaabe
1aaabf
b10 aaabh
b11 aaabn
0aaabo
0aaabp
0aaabr
0aaabv
1aaaca
b0 aaacp
0aaagi
0aaagl
0aaagp

#110
0aaaaa

#115
1aaaaa
b1010 aaaag
b10 aaaah
b100 aaaai
b100 aaaaj
b1000 aaaau
0aaabf
b11 aaabh
1aaabo
1aaabp
b0 aaabq
1aaabr
1aaabv
0aaaca
b10 aaacg
b10 aaacn
b1 aaacp
1aaagi
1aaagl
1aaagp
b10 aaagv

#120
0aaaaa

#125
1aaaaa
b1011 aaaag
b1001 aaaau
b11 aaaay
b10 aaabe
1aaabf
b10 aaabh
b10 aaabi
b1 aaabj
b1 aaabk
b0 aaabn
0aaabo
0aaabp
0aaabr
0aaabv
1aaaca
b0 aaacp
0aaagi
0aaagl
0aaagp

#130
0aaaaa

#135
1aaaaa
b1100 aaaag
b1000 aaaah
b0 aaaai
b10001111100 aaaaj
b101 aaaak
b1010 aaaau
0aaabf
b11 aaabh
1aaabo
1aaabp
b1 aaabq
1aaabr
1aaabv
b10001110100 aaaby
b10001110100 aaabz
0aaaca
b11 aaacg
b11 aaacn
b1 aaacp
1aaagi
1aaagl
1aaagp
b11 aaagv

#140
0aaaaa

#145
1aaaaa
0aaaao
b100 aaaay
b11 aaabe
1aaabf
b10 aaabh
b1 aaabn
0aaabo
0aaabp
0aaabr
0aaabv
1aaaca
b0 aaacp
0aaagi
0aaagl
0aaagp

#150
0aaaaa

#155
1aaaaa
0aaabf
b11 aaabh
1aaabo
1aaabp
b10 aaabq
1aaabr
1aaabv
0aaaca
b10 aaacb
b1 aaacc
b1 aaacd
b0 aaacg
b100011101000 aaach
b10 aaaci
b1 aaacj
b1 aaack
b0 aaacn
b100011101000 aaaco
b1 aaacp
1aaagi
1aaagl
1aaagp
b10 aaagq
b1 aaagr
b1 aaags
b0 aaagv

#160
0aaaaa

#165
1aaaaa
1aaaam
1aaaaw
b1 aaaay
b0 aaabe
1aaabf
b10 aaabh
b10 aaabn
0aaabo
0aaabp
0aaabr
0aaabv
1aaaca
b0 aaacp
0aaagi
0aaagl
0aaagp
b100011101000 aaagx

#170
0aaaaa

#175
1aaaaa
b1101 aaaag
b10 aaaah
b101 aaaai
b101 aaaaj
1aaaao
b1000 aaaap
b0 aaaaq
b10011000011 aaaar
b10 aaaas
b1000 aaaaz
b0 aaaba
b10011000011 aaabb
b10 aaabc
b11 aaabh
1aaabo
1aaabp
b0 aaabq
1aaabr
1aaabv
0aaaca
b1 aaacg
b1 aaacn
b1 aaacp
1aaagi
1aaagl
1aaagp
b1 aaagv

#180
0aaaaa

#185
1aaaaa
b1110 aaaag
0aaaam
b10 aaaap
b10 aaaaq
b10 aaaar
0aaaaw
b10 aaaay
b10 aaaaz
b1 aaaba
b1 aaabb
b1 aaabc
b1 aaabe
b11 aaabn
0aaabo
0aaabp
0aaabr
0aaabv
1aaaca
b0 aaacp
0aaagi
0aaagl
0aaagp

#190
0aaaaa

#195
1aaaaa
0aaaao
1aaaax
b1000 aaaaz
b0 aaaba
b10011000011 aaabb
b10 aaabc
b100 aaabh
1aaabo
1aaabp
b1 aaabq
1aaabr
1aaabv
0aaaca
b10 aaacg
b10 aaacn
b1 aaacp
1aaagi
1aaagl
1aaagp
b10 aaagv

#200
0aaaaa

#205
1aaaaa
b11 aaaay
b10 aaaaz
b1 aaaba
b1 aaabb
b1 aaabc
b10 aaabe
0aaabg
b1000 aaabi
b0 aaabj
b10011000011 aaabk
b10 aaabl
b0 aaabn
0aaabo
0aaabp
0aaabr
0aaabv
1aaaca
b0 aaacp
0aaagi
0aaagl
0aaagp

#210
0aaaaa

#215
1aaaaa
1aaabg
b10 aaabi
b1 aaabj
b1 aaabk
b1 aaabl
1aaabo
1aaabp
b10 aaabq
1aaabr
1aaabv
b100011101000 aaaby
b100011101000 aaabz
0aaaca
b11 aaacg
b11 aaacn
b1 aaacp
1aaagi
1aaagl
1aaagp
b11 aaagv

#220
0aaaaa

#225
1aaaaa
b100 aaaay
b11 aaabe
0aaabg
b1000 aaabi
b0 aaabj
b10011000011 aaabk
b10 aaabl
b1 aaabn
0aaabo
0aaabp
0aaabr
0aaabv
1aaaca
b0 aaacp
0aaagi
0aaagl
0aaagp

#230
0aaaaa

#235
1aaaaa
1aaabg
b10 aaabi
b1 aaabj
b1 aaabk
b1 aaabl
1aaabo
1aaabp
b11 aaabq
1aaabr
1aaabv
0aaaca
b0 aaacg
b1000111010000 aaach
b0 aaacn
b1000111010000 aaaco
b1 aaacp
1aaagi
1aaagl
1aaagp
b0 aaagv

#240
0aaaaa

#245
1aaaaa
b11 aaaay
b1000 aaaaz
b0 aaaba
b10011000011 aaabb
b10 aaabc
b10 aaabe
0aaabg
b1000 aaabi
b0 aaabj
b10011000011 aaabk
b10 aaabl
0aaabo
0aaabp
0aaabr
0aaabv
1aaaca
b0 aaacp
0aaagi
0aaagl
0aaagp
b1000111010000 aaagx

#250
0aaaaa

#255
1aaaaa
1aaabg
b0 aaabn
1aaabo
1aaabp
b0 aaabq
1aaabr
1aaabv
b0 aaaby
b0 aaabz
0aaaca
b1 aaacg
b1 aaacn
b1 aaacp
1aaagi
1aaagl
1aaagp
b1 aaagv

#260
0aaaaa

#265
1aaaaa
b100 aaaay
b11 aaabe
0aaabg
b10 aaabi
b1 aaabj
b1 aaabk
b1 aaabl
b10 aaabn
0aaabo
0aaabp
0aaabr
0aaabv
1aaaca
b0 aaacp
0aaagi
0aaagl
0aaagp

#270
0aaaaa

#275
1aaaaa
1aaabg
b1000 aaabi
b0 aaabj
b10011000011 aaabk
b10 aaabl
b1 aaabn
1aaabo
1aaabp
b1 aaabq
1aaabr
1aaabv
0aaaca
b1000 aaacb
b0 aaacc
b10011000011 aaacd
b10 aaace
b0 aaacg
b10011000011 aaach
b1000 aaaci
b0 aaacj
b10011000011 aaack
b10 aaacl
b0 aaacn
b10011000011 aaaco
b1 aaacp
1aaagi
1aaagl
1aaagp
b1000 aaagq
b0 aaagr
b10011000011 aaags
b10 aaagt
b0 aaagv

#280
0aaaaa

#285
1aaaaa
1aaaam
1aaaaw
b1 aaaay
b10 aaaaz
b10 aaaba
b10 aaabb
b0 aaabe
0aaabg
b10 aaabn
0aaabo
0aaabp
0aaabr
0aaabv
1aaaca
b0 aaacp
0aaagi
0aaagl
0aaagp
b10011000011 aaagy

#290
0aaaaa

#295
1aaaaa
1aaabg
b10 aaabi
b1 aaabj
b1 aaabk
b1 aaabl
1aaabo
1aaabp
b10 aaabq
1aaabr
1aaabv
b100011101000 aaaby
b100011101000 aaabz
0aaaca
b1 aaacg
b1 aaacn
b1 aaacp
1aaagi
1aaagl
1aaagp
b1 aaagv

#300
0aaaaa

#305
1aaaaa
b1111 aaaag
b1000 aaaah
b0 aaaai
b10010110101 aaaaj
b110 aaaak
0aaaam
1aaaao
0aaaaw
b10 aaaay
b1 aaabe
0aaabg
b1000 aaabi
b0 aaabj
b10011000011 aaabk
b10 aaabl
b11 aaabn
0aaabo
0aaabp
0aaabr
0aaabv
1aaaca
b0 aaacp
0aaagi
0aaagl
0aaagp

#310
0aaaaa

#315
1aaaaa
0aaaao
1aaabg
b10 aaabi
b1 aaabj
b1 aaabk
b1 aaabl
1aaabo
1aaabp
b11 aaabq
1aaabr
1aaabv
0aaaca
b10 aaacb
b1 aaacc
b1 aaacd
b1 aaace
b10 aaacg
b1000111010000 aaach
b10 aaaci
b1 aaacj
b1 aaack
b1 aaacl
b10 aaacn
b1000111010000 aaaco
b1 aaacp
1aaagi
1aaagl
1aaagp
b10 aaagq
b1 aaagr
b1 aaags
b1 aaagt
b10 aaagv

#320
0aaaaa

#325
1aaaaa
0aaabf
0aaabg
b1000 aaabi
b0 aaabj
b10011000011 aaabk
b10 aaabl
0aaabo
0aaabp
0aaabr
0aaabv
1aaaca
b0 aaacp
0aaagi
0aaagl
0aaagp

#330
0aaaaa

#335
1aaaaa
1aaabg
b10 aaabn
1aaabo
1aaabp
b0 aaabq
1aaabr
1aaabv
b0 aaaby
b0 aaabz
0aaaca
b11 aaacg
b11 aaacn
b1 aaacp
1aaagi
1aaagl
1aaagp
b11 aaagv

#340
0aaaaa

#345
1aaaaa
0aaaax
b11 aaabh
b10 aaabi
b10 aaabj
b10 aaabk
b0 aaabn
0aaabo
0aaabp
0aaabr
0aaabv
1aaaca
b0 aaacp
0aaagi
0aaagl
0aaagp

#350
0aaaaa

#355
1aaaaa
b1000 aaabi
b0 aaabj
b10011000011 aaabk
b11 aaabn
1aaabo
1aaabp
b1 aaabq
1aaabr
1aaabv
0aaaca
b1000 aaacb
b0 aaacc
b10011000011 aaacd
b10 aaace
b10 aaacg
b10011000011 aaach
b1000 aaaci
b0 aaacj
b10011000011 aaack
b10 aaacl
b10 aaacn
b10011000011 aaaco
b1 aaacp
1aaagi
1aaagl
1aaagp
b1000 aaagq
b0 aaagr
b10011000011 aaags
b10 aaagt
b10 aaagv

#360
0aaaaa

#365
1aaaaa
b11 aaaay
b10 aaabe
1aaabf
b10 aaabh
b10 aaabi
b10 aaabj
b10 aaabk
b1 aaabn
0aaabo
0aaabp
0aaabr
0aaabv
1aaaca
b0 aaacp
0aaagi
0aaagl
0aaagp

#370
0aaaaa

#375
1aaaaa
0aaabf
b11 aaabh
b0 aaabn
1aaabo
1aaabp
b10 aaabq
1aaabr
1aaabv
b10011000011 aaaby
b10011000011 aaabz
0aaaca
b11 aaacg
b11 aaacn
b1 aaacp
1aaagi
1aaagl
1aaagp
b11 aaagv

#380
0aaaaa

#385
1aaaaa
b100 aaaay
b11 aaabe
1aaabf
b10 aaabh
b1 aaabn
0aaabo
0aaabp
0aaabr
0aaabv
1aaaca
b0 aaacp
0aaagi
0aaagl
0aaagp

#390
0aaaaa

#395
1aaaaa
0aaabf
b11 aaabh
1aaabo
1aaabp
b11 aaabq
1aaabr
1aaabv
0aaaca
b10 aaacb
b10 aaacc
b10 aaacd
b0 aaacg
b100110000110 aaach
b10 aaaci
b10 aaacj
b10 aaack
b0 aaacn
b100110000110 aaaco
b1 aaacp
1aaagi
1aaagl
1aaagp
b10 aaagq
b10 aaagr
b10 aaags
b0 aaagv

#400
0aaaaa

#405
1aaaaa
1aaaam
1aaaaw
b1 aaaay
b0 aaabe
1aaabf
b10 aaabh
b10 aaabn
0aaabo
0aaabp
0aaabr
0aaabv
1aaaca
b0 aaacp
0aaagi
0aaagl
0aaagp
b100110000110 aaagy

#410
0aaaaa

#415
1aaaaa
b10000 aaaag
b10 aaaah
b110 aaaai
b110 aaaaj
1aaaao
b1000 aaaap
b0 aaaaq
b10010000101 aaaar
b11 aaaas
b1000 aaaaz
b0 aaaba
b10010000101 aaabb
b11 aaabc
b11 aaabh
1aaabo
1aaabp
b0 aaabq
1aaabr
1aaabv
0aaaca
b1 aaacg
b1 aaacn
b1 aaacp
1aaagi
1aaagl
1aaagp
b1 aaagv

#420
0aaaaa

